ripple_carry_adder_overflow/transcript
# Compile of FullAdder.v was successful.
# Compile of overflow.v was successful.
# Compile of RippelCarryAdder.v was successful.
# 3 compiles, 0 failed with no errors.
# Compile of FullAdder.v was successful.
# Compile of overflow.v was successful.
# Compile of RippelCarryAdder.v was successful.
# Compile of RippelCarryAdder_TB.v failed with 1 errors.
# 4 compiles, 1 failed with 1 error.
# Compile of FullAdder.v was successful.
# Compile of overflow.v was successful.
# Compile of RippelCarryAdder.v was successful.
# Compile of RippelCarryAdder_TB.v was successful.
# 4 compiles, 0 failed with no errors.
vsim -gui work.RippleCarryAdder_TB
# vsim -gui work.RippleCarryAdder_TB 
# Start time: 23:39:09 on Oct 31,2022
# Loading work.RippleCarryAdder_TB
# Loading work.RippelCarryAdder
# Loading work.overflow
# Loading work.Fulladder
run -all
# in1=00000000000000000000000000000000 in2=00000000000000000000000000000000 c_in=0 c_out=0 sum=00000000000000000000000000000000 overflow = 0
# in1=00000000000000000000000000000000 in2=00000000000000000000000000000001 c_in=0 c_out=0 sum=00000000000000000000000000000001 overflow = 0
# in1=00000000000000000000000000000000 in2=00000000000000000000000000000010 c_in=0 c_out=0 sum=00000000000000000000000000000010 overflow = 0
# in1=00000000000000000000000000000000 in2=00000000000000000000000000000011 c_in=0 c_out=0 sum=00000000000000000000000000000011 overflow = 0
# in1=00000000000000000000000000000000 in2=00000000000000000000000000000100 c_in=0 c_out=0 sum=00000000000000000000000000000100 overflow = 0
# in1=00000000000000000000000000000000 in2=00000000000000000000000000000101 c_in=0 c_out=0 sum=00000000000000000000000000000101 overflow = 0
# in1=00000000000000000000000000000000 in2=00000000000000000000000000000110 c_in=0 c_out=0 sum=00000000000000000000000000000110 overflow = 0
# in1=00000000000000000000000000000000 in2=00000000000000000000000000000111 c_in=0 c_out=0 sum=00000000000000000000000000000111 overflow = 0
# in1=00000000000000000000000000000000 in2=00000000000000000000000000001000 c_in=0 c_out=0 sum=00000000000000000000000000001000 overflow = 0
# in1=00000000000000000000000000000000 in2=00000000000000000000000000001001 c_in=0 c_out=0 sum=00000000000000000000000000001001 overflow = 0
# in1=00000000000000000000000000000001 in2=00000000000000000000000000000000 c_in=0 c_out=0 sum=00000000000000000000000000000001 overflow = 0
# in1=00000000000000000000000000000001 in2=00000000000000000000000000000001 c_in=0 c_out=0 sum=00000000000000000000000000000010 overflow = 0
# in1=00000000000000000000000000000001 in2=00000000000000000000000000000010 c_in=0 c_out=0 sum=00000000000000000000000000000011 overflow = 0
# in1=00000000000000000000000000000001 in2=00000000000000000000000000000011 c_in=0 c_out=0 sum=00000000000000000000000000000100 overflow = 0
# in1=00000000000000000000000000000001 in2=00000000000000000000000000000100 c_in=0 c_out=0 sum=00000000000000000000000000000101 overflow = 0
# in1=00000000000000000000000000000001 in2=00000000000000000000000000000101 c_in=0 c_out=0 sum=00000000000000000000000000000110 overflow = 0
# in1=00000000000000000000000000000001 in2=00000000000000000000000000000110 c_in=0 c_out=0 sum=00000000000000000000000000000111 overflow = 0
# in1=00000000000000000000000000000001 in2=00000000000000000000000000000111 c_in=0 c_out=0 sum=00000000000000000000000000001000 overflow = 0
# in1=00000000000000000000000000000001 in2=00000000000000000000000000001000 c_in=0 c_out=0 sum=00000000000000000000000000001001 overflow = 0
# in1=00000000000000000000000000000001 in2=00000000000000000000000000001001 c_in=0 c_out=0 sum=00000000000000000000000000001010 overflow = 0
# in1=00000000000000000000000000000010 in2=00000000000000000000000000000000 c_in=0 c_out=0 sum=00000000000000000000000000000010 overflow = 0
# in1=00000000000000000000000000000010 in2=00000000000000000000000000000001 c_in=0 c_out=0 sum=00000000000000000000000000000011 overflow = 0
# in1=00000000000000000000000000000010 in2=00000000000000000000000000000010 c_in=0 c_out=0 sum=00000000000000000000000000000100 overflow = 0
# in1=00000000000000000000000000000010 in2=00000000000000000000000000000011 c_in=0 c_out=0 sum=00000000000000000000000000000101 overflow = 0
# in1=00000000000000000000000000000010 in2=00000000000000000000000000000100 c_in=0 c_out=0 sum=00000000000000000000000000000110 overflow = 0
# in1=00000000000000000000000000000010 in2=00000000000000000000000000000101 c_in=0 c_out=0 sum=00000000000000000000000000000111 overflow = 0
# in1=00000000000000000000000000000010 in2=00000000000000000000000000000110 c_in=0 c_out=0 sum=00000000000000000000000000001000 overflow = 0
# in1=00000000000000000000000000000010 in2=00000000000000000000000000000111 c_in=0 c_out=0 sum=00000000000000000000000000001001 overflow = 0
# in1=00000000000000000000000000000010 in2=00000000000000000000000000001000 c_in=0 c_out=0 sum=00000000000000000000000000001010 overflow = 0
# in1=00000000000000000000000000000010 in2=00000000000000000000000000001001 c_in=0 c_out=0 sum=00000000000000000000000000001011 overflow = 0
# in1=00000000000000000000000000000011 in2=00000000000000000000000000000000 c_in=0 c_out=0 sum=00000000000000000000000000000011 overflow = 0
# in1=00000000000000000000000000000011 in2=00000000000000000000000000000001 c_in=0 c_out=0 sum=00000000000000000000000000000100 overflow = 0
# in1=00000000000000000000000000000011 in2=00000000000000000000000000000010 c_in=0 c_out=0 sum=00000000000000000000000000000101 overflow = 0
# in1=00000000000000000000000000000011 in2=00000000000000000000000000000011 c_in=0 c_out=0 sum=00000000000000000000000000000110 overflow = 0
# in1=00000000000000000000000000000011 in2=00000000000000000000000000000100 c_in=0 c_out=0 sum=00000000000000000000000000000111 overflow = 0
# in1=00000000000000000000000000000011 in2=00000000000000000000000000000101 c_in=0 c_out=0 sum=00000000000000000000000000001000 overflow = 0
# in1=00000000000000000000000000000011 in2=00000000000000000000000000000110 c_in=0 c_out=0 sum=00000000000000000000000000001001 overflow = 0
# in1=00000000000000000000000000000011 in2=00000000000000000000000000000111 c_in=0 c_out=0 sum=00000000000000000000000000001010 overflow = 0
# in1=00000000000000000000000000000011 in2=00000000000000000000000000001000 c_in=0 c_out=0 sum=00000000000000000000000000001011 overflow = 0
# in1=00000000000000000000000000000011 in2=00000000000000000000000000001001 c_in=0 c_out=0 sum=00000000000000000000000000001100 overflow = 0
# in1=00000000000000000000000000000100 in2=00000000000000000000000000000000 c_in=0 c_out=0 sum=00000000000000000000000000000100 overflow = 0
# in1=00000000000000000000000000000100 in2=00000000000000000000000000000001 c_in=0 c_out=0 sum=00000000000000000000000000000101 overflow = 0
# in1=00000000000000000000000000000100 in2=00000000000000000000000000000010 c_in=0 c_out=0 sum=00000000000000000000000000000110 overflow = 0
# in1=00000000000000000000000000000100 in2=00000000000000000000000000000011 c_in=0 c_out=0 sum=00000000000000000000000000000111 overflow = 0
# in1=00000000000000000000000000000100 in2=00000000000000000000000000000100 c_in=0 c_out=0 sum=00000000000000000000000000001000 overflow = 0
# in1=00000000000000000000000000000100 in2=00000000000000000000000000000101 c_in=0 c_out=0 sum=00000000000000000000000000001001 overflow = 0
# in1=00000000000000000000000000000100 in2=00000000000000000000000000000110 c_in=0 c_out=0 sum=00000000000000000000000000001010 overflow = 0
# in1=00000000000000000000000000000100 in2=00000000000000000000000000000111 c_in=0 c_out=0 sum=00000000000000000000000000001011 overflow = 0
# in1=00000000000000000000000000000100 in2=00000000000000000000000000001000 c_in=0 c_out=0 sum=00000000000000000000000000001100 overflow = 0
# in1=00000000000000000000000000000100 in2=00000000000000000000000000001001 c_in=0 c_out=0 sum=00000000000000000000000000001101 overflow = 0
# in1=00000000000000000000000000000101 in2=00000000000000000000000000000000 c_in=0 c_out=0 sum=00000000000000000000000000000101 overflow = 0
# in1=00000000000000000000000000000101 in2=00000000000000000000000000000001 c_in=0 c_out=0 sum=00000000000000000000000000000110 overflow = 0
# in1=00000000000000000000000000000101 in2=00000000000000000000000000000010 c_in=0 c_out=0 sum=00000000000000000000000000000111 overflow = 0
# in1=00000000000000000000000000000101 in2=00000000000000000000000000000011 c_in=0 c_out=0 sum=00000000000000000000000000001000 overflow = 0
# in1=00000000000000000000000000000101 in2=00000000000000000000000000000100 c_in=0 c_out=0 sum=00000000000000000000000000001001 overflow = 0
# in1=00000000000000000000000000000101 in2=00000000000000000000000000000101 c_in=0 c_out=0 sum=00000000000000000000000000001010 overflow = 0
# in1=00000000000000000000000000000101 in2=00000000000000000000000000000110 c_in=0 c_out=0 sum=00000000000000000000000000001011 overflow = 0
# in1=00000000000000000000000000000101 in2=00000000000000000000000000000111 c_in=0 c_out=0 sum=00000000000000000000000000001100 overflow = 0
# in1=00000000000000000000000000000101 in2=00000000000000000000000000001000 c_in=0 c_out=0 sum=00000000000000000000000000001101 overflow = 0
# in1=00000000000000000000000000000101 in2=00000000000000000000000000001001 c_in=0 c_out=0 sum=00000000000000000000000000001110 overflow = 0
# in1=00000000000000000000000000000110 in2=00000000000000000000000000000000 c_in=0 c_out=0 sum=00000000000000000000000000000110 overflow = 0
# in1=00000000000000000000000000000110 in2=00000000000000000000000000000001 c_in=0 c_out=0 sum=00000000000000000000000000000111 overflow = 0
# in1=00000000000000000000000000000110 in2=00000000000000000000000000000010 c_in=0 c_out=0 sum=00000000000000000000000000001000 overflow = 0
# in1=00000000000000000000000000000110 in2=00000000000000000000000000000011 c_in=0 c_out=0 sum=00000000000000000000000000001001 overflow = 0
# in1=00000000000000000000000000000110 in2=00000000000000000000000000000100 c_in=0 c_out=0 sum=00000000000000000000000000001010 overflow = 0
# in1=00000000000000000000000000000110 in2=00000000000000000000000000000101 c_in=0 c_out=0 sum=00000000000000000000000000001011 overflow = 0
# in1=00000000000000000000000000000110 in2=00000000000000000000000000000110 c_in=0 c_out=0 sum=00000000000000000000000000001100 overflow = 0
# in1=00000000000000000000000000000110 in2=00000000000000000000000000000111 c_in=0 c_out=0 sum=00000000000000000000000000001101 overflow = 0
# in1=00000000000000000000000000000110 in2=00000000000000000000000000001000 c_in=0 c_out=0 sum=00000000000000000000000000001110 overflow = 0
# in1=00000000000000000000000000000110 in2=00000000000000000000000000001001 c_in=0 c_out=0 sum=00000000000000000000000000001111 overflow = 0
# in1=00000000000000000000000000000111 in2=00000000000000000000000000000000 c_in=0 c_out=0 sum=00000000000000000000000000000111 overflow = 0
# in1=00000000000000000000000000000111 in2=00000000000000000000000000000001 c_in=0 c_out=0 sum=00000000000000000000000000001000 overflow = 0
# in1=00000000000000000000000000000111 in2=00000000000000000000000000000010 c_in=0 c_out=0 sum=00000000000000000000000000001001 overflow = 0
# in1=00000000000000000000000000000111 in2=00000000000000000000000000000011 c_in=0 c_out=0 sum=00000000000000000000000000001010 overflow = 0
# in1=00000000000000000000000000000111 in2=00000000000000000000000000000100 c_in=0 c_out=0 sum=00000000000000000000000000001011 overflow = 0
# in1=00000000000000000000000000000111 in2=00000000000000000000000000000101 c_in=0 c_out=0 sum=00000000000000000000000000001100 overflow = 0
# in1=00000000000000000000000000000111 in2=00000000000000000000000000000110 c_in=0 c_out=0 sum=00000000000000000000000000001101 overflow = 0
# in1=00000000000000000000000000000111 in2=00000000000000000000000000000111 c_in=0 c_out=0 sum=00000000000000000000000000001110 overflow = 0
# in1=00000000000000000000000000000111 in2=00000000000000000000000000001000 c_in=0 c_out=0 sum=00000000000000000000000000001111 overflow = 0
# in1=00000000000000000000000000000111 in2=00000000000000000000000000001001 c_in=0 c_out=0 sum=00000000000000000000000000010000 overflow = 0
# in1=00000000000000000000000000001000 in2=00000000000000000000000000000000 c_in=0 c_out=0 sum=00000000000000000000000000001000 overflow = 0
# in1=00000000000000000000000000001000 in2=00000000000000000000000000000001 c_in=0 c_out=0 sum=00000000000000000000000000001001 overflow = 0
# in1=00000000000000000000000000001000 in2=00000000000000000000000000000010 c_in=0 c_out=0 sum=00000000000000000000000000001010 overflow = 0
# in1=00000000000000000000000000001000 in2=00000000000000000000000000000011 c_in=0 c_out=0 sum=00000000000000000000000000001011 overflow = 0
# in1=00000000000000000000000000001000 in2=00000000000000000000000000000100 c_in=0 c_out=0 sum=00000000000000000000000000001100 overflow = 0
# in1=00000000000000000000000000001000 in2=00000000000000000000000000000101 c_in=0 c_out=0 sum=00000000000000000000000000001101 overflow = 0
# in1=00000000000000000000000000001000 in2=00000000000000000000000000000110 c_in=0 c_out=0 sum=00000000000000000000000000001110 overflow = 0
# in1=00000000000000000000000000001000 in2=00000000000000000000000000000111 c_in=0 c_out=0 sum=00000000000000000000000000001111 overflow = 0
# in1=00000000000000000000000000001000 in2=00000000000000000000000000001000 c_in=0 c_out=0 sum=00000000000000000000000000010000 overflow = 0
# in1=00000000000000000000000000001000 in2=00000000000000000000000000001001 c_in=0 c_out=0 sum=00000000000000000000000000010001 overflow = 0
# in1=00000000000000000000000000001001 in2=00000000000000000000000000000000 c_in=0 c_out=0 sum=00000000000000000000000000001001 overflow = 0
# in1=00000000000000000000000000001001 in2=00000000000000000000000000000001 c_in=0 c_out=0 sum=00000000000000000000000000001010 overflow = 0
# in1=00000000000000000000000000001001 in2=00000000000000000000000000000010 c_in=0 c_out=0 sum=00000000000000000000000000001011 overflow = 0
# in1=00000000000000000000000000001001 in2=00000000000000000000000000000011 c_in=0 c_out=0 sum=00000000000000000000000000001100 overflow = 0
# in1=00000000000000000000000000001001 in2=00000000000000000000000000000100 c_in=0 c_out=0 sum=00000000000000000000000000001101 overflow = 0
# in1=00000000000000000000000000001001 in2=00000000000000000000000000000101 c_in=0 c_out=0 sum=00000000000000000000000000001110 overflow = 0
# in1=00000000000000000000000000001001 in2=00000000000000000000000000000110 c_in=0 c_out=0 sum=00000000000000000000000000001111 overflow = 0
# in1=00000000000000000000000000001001 in2=00000000000000000000000000000111 c_in=0 c_out=0 sum=00000000000000000000000000010000 overflow = 0
# in1=00000000000000000000000000001001 in2=00000000000000000000000000001000 c_in=0 c_out=0 sum=00000000000000000000000000010001 overflow = 0
# in1=00000000000000000000000000001001 in2=00000000000000000000000000001001 c_in=0 c_out=0 sum=00000000000000000000000000010010 overflow = 0
# in1=00000000000000000000000000000000 in2=00000000000000000000000000000000 c_in=1 c_out=0 sum=00000000000000000000000000000001 overflow = 0
# in1=00000000000000000000000000000000 in2=00000000000000000000000000000001 c_in=1 c_out=0 sum=00000000000000000000000000000010 overflow = 0
# in1=00000000000000000000000000000000 in2=00000000000000000000000000000010 c_in=1 c_out=0 sum=00000000000000000000000000000011 overflow = 0
# in1=00000000000000000000000000000000 in2=00000000000000000000000000000011 c_in=1 c_out=0 sum=00000000000000000000000000000100 overflow = 0
# in1=00000000000000000000000000000000 in2=00000000000000000000000000000100 c_in=1 c_out=0 sum=00000000000000000000000000000101 overflow = 0
# in1=00000000000000000000000000000000 in2=00000000000000000000000000000101 c_in=1 c_out=0 sum=00000000000000000000000000000110 overflow = 0
# in1=00000000000000000000000000000000 in2=00000000000000000000000000000110 c_in=1 c_out=0 sum=00000000000000000000000000000111 overflow = 0
# in1=00000000000000000000000000000000 in2=00000000000000000000000000000111 c_in=1 c_out=0 sum=00000000000000000000000000001000 overflow = 0
# in1=00000000000000000000000000000000 in2=00000000000000000000000000001000 c_in=1 c_out=0 sum=00000000000000000000000000001001 overflow = 0
# in1=00000000000000000000000000000000 in2=00000000000000000000000000001001 c_in=1 c_out=0 sum=00000000000000000000000000001010 overflow = 0
# in1=00000000000000000000000000000001 in2=00000000000000000000000000000000 c_in=1 c_out=0 sum=00000000000000000000000000000010 overflow = 0
# in1=00000000000000000000000000000001 in2=00000000000000000000000000000001 c_in=1 c_out=0 sum=00000000000000000000000000000011 overflow = 0
# in1=00000000000000000000000000000001 in2=00000000000000000000000000000010 c_in=1 c_out=0 sum=00000000000000000000000000000100 overflow = 0
# in1=00000000000000000000000000000001 in2=00000000000000000000000000000011 c_in=1 c_out=0 sum=00000000000000000000000000000101 overflow = 0
# in1=00000000000000000000000000000001 in2=00000000000000000000000000000100 c_in=1 c_out=0 sum=00000000000000000000000000000110 overflow = 0
# in1=00000000000000000000000000000001 in2=00000000000000000000000000000101 c_in=1 c_out=0 sum=00000000000000000000000000000111 overflow = 0
# in1=00000000000000000000000000000001 in2=00000000000000000000000000000110 c_in=1 c_out=0 sum=00000000000000000000000000001000 overflow = 0
# in1=00000000000000000000000000000001 in2=00000000000000000000000000000111 c_in=1 c_out=0 sum=00000000000000000000000000001001 overflow = 0
# in1=00000000000000000000000000000001 in2=00000000000000000000000000001000 c_in=1 c_out=0 sum=00000000000000000000000000001010 overflow = 0
# in1=00000000000000000000000000000001 in2=00000000000000000000000000001001 c_in=1 c_out=0 sum=00000000000000000000000000001011 overflow = 0
# in1=00000000000000000000000000000010 in2=00000000000000000000000000000000 c_in=1 c_out=0 sum=00000000000000000000000000000011 overflow = 0
# in1=00000000000000000000000000000010 in2=00000000000000000000000000000001 c_in=1 c_out=0 sum=00000000000000000000000000000100 overflow = 0
# in1=00000000000000000000000000000010 in2=00000000000000000000000000000010 c_in=1 c_out=0 sum=00000000000000000000000000000101 overflow = 0
# in1=00000000000000000000000000000010 in2=00000000000000000000000000000011 c_in=1 c_out=0 sum=00000000000000000000000000000110 overflow = 0
# in1=00000000000000000000000000000010 in2=00000000000000000000000000000100 c_in=1 c_out=0 sum=00000000000000000000000000000111 overflow = 0
# in1=00000000000000000000000000000010 in2=00000000000000000000000000000101 c_in=1 c_out=0 sum=00000000000000000000000000001000 overflow = 0
# in1=00000000000000000000000000000010 in2=00000000000000000000000000000110 c_in=1 c_out=0 sum=00000000000000000000000000001001 overflow = 0
# in1=00000000000000000000000000000010 in2=00000000000000000000000000000111 c_in=1 c_out=0 sum=00000000000000000000000000001010 overflow = 0
# in1=00000000000000000000000000000010 in2=00000000000000000000000000001000 c_in=1 c_out=0 sum=00000000000000000000000000001011 overflow = 0
# in1=00000000000000000000000000000010 in2=00000000000000000000000000001001 c_in=1 c_out=0 sum=00000000000000000000000000001100 overflow = 0
# in1=00000000000000000000000000000011 in2=00000000000000000000000000000000 c_in=1 c_out=0 sum=00000000000000000000000000000100 overflow = 0
# in1=00000000000000000000000000000011 in2=00000000000000000000000000000001 c_in=1 c_out=0 sum=00000000000000000000000000000101 overflow = 0
# in1=00000000000000000000000000000011 in2=00000000000000000000000000000010 c_in=1 c_out=0 sum=00000000000000000000000000000110 overflow = 0
# in1=00000000000000000000000000000011 in2=00000000000000000000000000000011 c_in=1 c_out=0 sum=00000000000000000000000000000111 overflow = 0
# in1=00000000000000000000000000000011 in2=00000000000000000000000000000100 c_in=1 c_out=0 sum=00000000000000000000000000001000 overflow = 0
# in1=00000000000000000000000000000011 in2=00000000000000000000000000000101 c_in=1 c_out=0 sum=00000000000000000000000000001001 overflow = 0
# in1=00000000000000000000000000000011 in2=00000000000000000000000000000110 c_in=1 c_out=0 sum=00000000000000000000000000001010 overflow = 0
# in1=00000000000000000000000000000011 in2=00000000000000000000000000000111 c_in=1 c_out=0 sum=00000000000000000000000000001011 overflow = 0
# in1=00000000000000000000000000000011 in2=00000000000000000000000000001000 c_in=1 c_out=0 sum=00000000000000000000000000001100 overflow = 0
# in1=00000000000000000000000000000011 in2=00000000000000000000000000001001 c_in=1 c_out=0 sum=00000000000000000000000000001101 overflow = 0
# in1=00000000000000000000000000000100 in2=00000000000000000000000000000000 c_in=1 c_out=0 sum=00000000000000000000000000000101 overflow = 0
# in1=00000000000000000000000000000100 in2=00000000000000000000000000000001 c_in=1 c_out=0 sum=00000000000000000000000000000110 overflow = 0
# in1=00000000000000000000000000000100 in2=00000000000000000000000000000010 c_in=1 c_out=0 sum=00000000000000000000000000000111 overflow = 0
# in1=00000000000000000000000000000100 in2=00000000000000000000000000000011 c_in=1 c_out=0 sum=00000000000000000000000000001000 overflow = 0
# in1=00000000000000000000000000000100 in2=00000000000000000000000000000100 c_in=1 c_out=0 sum=00000000000000000000000000001001 overflow = 0
# in1=00000000000000000000000000000100 in2=00000000000000000000000000000101 c_in=1 c_out=0 sum=00000000000000000000000000001010 overflow = 0
# in1=00000000000000000000000000000100 in2=00000000000000000000000000000110 c_in=1 c_out=0 sum=00000000000000000000000000001011 overflow = 0
# in1=00000000000000000000000000000100 in2=00000000000000000000000000000111 c_in=1 c_out=0 sum=00000000000000000000000000001100 overflow = 0
# in1=00000000000000000000000000000100 in2=00000000000000000000000000001000 c_in=1 c_out=0 sum=00000000000000000000000000001101 overflow = 0
# in1=00000000000000000000000000000100 in2=00000000000000000000000000001001 c_in=1 c_out=0 sum=00000000000000000000000000001110 overflow = 0
# in1=00000000000000000000000000000101 in2=00000000000000000000000000000000 c_in=1 c_out=0 sum=00000000000000000000000000000110 overflow = 0
# in1=00000000000000000000000000000101 in2=00000000000000000000000000000001 c_in=1 c_out=0 sum=00000000000000000000000000000111 overflow = 0
# in1=00000000000000000000000000000101 in2=00000000000000000000000000000010 c_in=1 c_out=0 sum=00000000000000000000000000001000 overflow = 0
# in1=00000000000000000000000000000101 in2=00000000000000000000000000000011 c_in=1 c_out=0 sum=00000000000000000000000000001001 overflow = 0
# in1=00000000000000000000000000000101 in2=00000000000000000000000000000100 c_in=1 c_out=0 sum=00000000000000000000000000001010 overflow = 0
# in1=00000000000000000000000000000101 in2=00000000000000000000000000000101 c_in=1 c_out=0 sum=00000000000000000000000000001011 overflow = 0
# in1=00000000000000000000000000000101 in2=00000000000000000000000000000110 c_in=1 c_out=0 sum=00000000000000000000000000001100 overflow = 0
# in1=00000000000000000000000000000101 in2=00000000000000000000000000000111 c_in=1 c_out=0 sum=00000000000000000000000000001101 overflow = 0
# in1=00000000000000000000000000000101 in2=00000000000000000000000000001000 c_in=1 c_out=0 sum=00000000000000000000000000001110 overflow = 0
# in1=00000000000000000000000000000101 in2=00000000000000000000000000001001 c_in=1 c_out=0 sum=00000000000000000000000000001111 overflow = 0
# in1=00000000000000000000000000000110 in2=00000000000000000000000000000000 c_in=1 c_out=0 sum=00000000000000000000000000000111 overflow = 0
# in1=00000000000000000000000000000110 in2=00000000000000000000000000000001 c_in=1 c_out=0 sum=00000000000000000000000000001000 overflow = 0
# in1=00000000000000000000000000000110 in2=00000000000000000000000000000010 c_in=1 c_out=0 sum=00000000000000000000000000001001 overflow = 0
# in1=00000000000000000000000000000110 in2=00000000000000000000000000000011 c_in=1 c_out=0 sum=00000000000000000000000000001010 overflow = 0
# in1=00000000000000000000000000000110 in2=00000000000000000000000000000100 c_in=1 c_out=0 sum=00000000000000000000000000001011 overflow = 0
# in1=00000000000000000000000000000110 in2=00000000000000000000000000000101 c_in=1 c_out=0 sum=00000000000000000000000000001100 overflow = 0
# in1=00000000000000000000000000000110 in2=00000000000000000000000000000110 c_in=1 c_out=0 sum=00000000000000000000000000001101 overflow = 0
# in1=00000000000000000000000000000110 in2=00000000000000000000000000000111 c_in=1 c_out=0 sum=00000000000000000000000000001110 overflow = 0
# in1=00000000000000000000000000000110 in2=00000000000000000000000000001000 c_in=1 c_out=0 sum=00000000000000000000000000001111 overflow = 0
# in1=00000000000000000000000000000110 in2=00000000000000000000000000001001 c_in=1 c_out=0 sum=00000000000000000000000000010000 overflow = 0
# in1=00000000000000000000000000000111 in2=00000000000000000000000000000000 c_in=1 c_out=0 sum=00000000000000000000000000001000 overflow = 0
# in1=00000000000000000000000000000111 in2=00000000000000000000000000000001 c_in=1 c_out=0 sum=00000000000000000000000000001001 overflow = 0
# in1=00000000000000000000000000000111 in2=00000000000000000000000000000010 c_in=1 c_out=0 sum=00000000000000000000000000001010 overflow = 0
# in1=00000000000000000000000000000111 in2=00000000000000000000000000000011 c_in=1 c_out=0 sum=00000000000000000000000000001011 overflow = 0
# in1=00000000000000000000000000000111 in2=00000000000000000000000000000100 c_in=1 c_out=0 sum=00000000000000000000000000001100 overflow = 0
# in1=00000000000000000000000000000111 in2=00000000000000000000000000000101 c_in=1 c_out=0 sum=00000000000000000000000000001101 overflow = 0
# in1=00000000000000000000000000000111 in2=00000000000000000000000000000110 c_in=1 c_out=0 sum=00000000000000000000000000001110 overflow = 0
# in1=00000000000000000000000000000111 in2=00000000000000000000000000000111 c_in=1 c_out=0 sum=00000000000000000000000000001111 overflow = 0
# in1=00000000000000000000000000000111 in2=00000000000000000000000000001000 c_in=1 c_out=0 sum=00000000000000000000000000010000 overflow = 0
# in1=00000000000000000000000000000111 in2=00000000000000000000000000001001 c_in=1 c_out=0 sum=00000000000000000000000000010001 overflow = 0
# in1=00000000000000000000000000001000 in2=00000000000000000000000000000000 c_in=1 c_out=0 sum=00000000000000000000000000001001 overflow = 0
# in1=00000000000000000000000000001000 in2=00000000000000000000000000000001 c_in=1 c_out=0 sum=00000000000000000000000000001010 overflow = 0
# in1=00000000000000000000000000001000 in2=00000000000000000000000000000010 c_in=1 c_out=0 sum=00000000000000000000000000001011 overflow = 0
# in1=00000000000000000000000000001000 in2=00000000000000000000000000000011 c_in=1 c_out=0 sum=00000000000000000000000000001100 overflow = 0
# in1=00000000000000000000000000001000 in2=00000000000000000000000000000100 c_in=1 c_out=0 sum=00000000000000000000000000001101 overflow = 0
# in1=00000000000000000000000000001000 in2=00000000000000000000000000000101 c_in=1 c_out=0 sum=00000000000000000000000000001110 overflow = 0
# in1=00000000000000000000000000001000 in2=00000000000000000000000000000110 c_in=1 c_out=0 sum=00000000000000000000000000001111 overflow = 0
# in1=00000000000000000000000000001000 in2=00000000000000000000000000000111 c_in=1 c_out=0 sum=00000000000000000000000000010000 overflow = 0
# in1=00000000000000000000000000001000 in2=00000000000000000000000000001000 c_in=1 c_out=0 sum=00000000000000000000000000010001 overflow = 0
# in1=00000000000000000000000000001000 in2=00000000000000000000000000001001 c_in=1 c_out=0 sum=00000000000000000000000000010010 overflow = 0
# in1=00000000000000000000000000001001 in2=00000000000000000000000000000000 c_in=1 c_out=0 sum=00000000000000000000000000001010 overflow = 0
# in1=00000000000000000000000000001001 in2=00000000000000000000000000000001 c_in=1 c_out=0 sum=00000000000000000000000000001011 overflow = 0
# in1=00000000000000000000000000001001 in2=00000000000000000000000000000010 c_in=1 c_out=0 sum=00000000000000000000000000001100 overflow = 0
# in1=00000000000000000000000000001001 in2=00000000000000000000000000000011 c_in=1 c_out=0 sum=00000000000000000000000000001101 overflow = 0
# in1=00000000000000000000000000001001 in2=00000000000000000000000000000100 c_in=1 c_out=0 sum=00000000000000000000000000001110 overflow = 0
# in1=00000000000000000000000000001001 in2=00000000000000000000000000000101 c_in=1 c_out=0 sum=00000000000000000000000000001111 overflow = 0
# in1=00000000000000000000000000001001 in2=00000000000000000000000000000110 c_in=1 c_out=0 sum=00000000000000000000000000010000 overflow = 0
# in1=00000000000000000000000000001001 in2=00000000000000000000000000000111 c_in=1 c_out=0 sum=00000000000000000000000000010001 overflow = 0
# in1=00000000000000000000000000001001 in2=00000000000000000000000000001000 c_in=1 c_out=0 sum=00000000000000000000000000010010 overflow = 0
# in1=00000000000000000000000000001001 in2=00000000000000000000000000001001 c_in=1 c_out=0 sum=00000000000000000000000000010011 overflow = 0
# 
# 
# Test Overflow
# 
# 
# in1=11111111111111111111111111111111 in2=11111111111111111111111111111111 c_in=0 c_out=1 sum=11111111111111111111111111111110 overflow = 0
# in1=11111111111111111111111111111111 in2=11111111111111111111111111111111 c_in=1 c_out=1 sum=11111111111111111111111111111111 overflow = 0
# in1=11111111111111111111111111111111 in2=00000000000000000000000000000000 c_in=0 c_out=0 sum=11111111111111111111111111111111 overflow = 0
# in1=00000000000000000000000000000000 in2=11111111111111111111111111111111 c_in=0 c_out=0 sum=11111111111111111111111111111111 overflow = 0
# 
# 
# Test negative numbers
# 
# 
# in1=11111111111111111111111111111111 in2=00000000000000000000000000000001 c_in=0 c_out=1 sum=00000000000000000000000000000000 overflow = 0
# in1=00000000000000000000000000001010 in2=00000000000000000000000000000101 c_in=0 c_out=0 sum=00000000000000000000000000001111 overflow = 0
# in1=00000000000000000000000000000000 in2=00000000000000000000000000000000 c_in=0 c_out=0 sum=00000000000000000000000000000000 overflow = 0
# in1=11111111111111111111111111110110 in2=00000000000000000000000000000101 c_in=0 c_out=0 sum=11111111111111111111111111111011 overflow = 0
# in1=11111111111111111111111111110110 in2=11111111111111111111111111111011 c_in=0 c_out=1 sum=11111111111111111111111111110001 overflow = 0
# Compile of FullAdder.v was successful.
# Compile of overflow.v was successful.
# Compile of RippelCarryAdder.v was successful.
# Compile of RippelCarryAdder_TB.v was successful.
# 4 compiles, 0 failed with no errors.
restart -f
# ** Note: (vsim-12125) Error and warning message counts have been reset to '0' because of 'restart'.
# Loading work.RippleCarryAdder_TB
# Loading work.RippelCarryAdder
# Loading work.overflow
# Loading work.Fulladder
run -all
# GetModuleFileName: The specified module could not be found.
# 
# 
# in1=00000000000000000000000000000000 in2=00000000000000000000000000000000 c_in=0 c_out=0 sum=00000000000000000000000000000000 overflow = 0
# in1=00000000000000000000000000000000 in2=00000000000000000000000000000001 c_in=0 c_out=0 sum=00000000000000000000000000000001 overflow = 0
# in1=00000000000000000000000000000000 in2=00000000000000000000000000000010 c_in=0 c_out=0 sum=00000000000000000000000000000010 overflow = 0
# in1=00000000000000000000000000000000 in2=00000000000000000000000000000011 c_in=0 c_out=0 sum=00000000000000000000000000000011 overflow = 0
# in1=00000000000000000000000000000000 in2=00000000000000000000000000000100 c_in=0 c_out=0 sum=00000000000000000000000000000100 overflow = 0
# in1=00000000000000000000000000000000 in2=00000000000000000000000000000101 c_in=0 c_out=0 sum=00000000000000000000000000000101 overflow = 0
# in1=00000000000000000000000000000000 in2=00000000000000000000000000000110 c_in=0 c_out=0 sum=00000000000000000000000000000110 overflow = 0
# in1=00000000000000000000000000000000 in2=00000000000000000000000000000111 c_in=0 c_out=0 sum=00000000000000000000000000000111 overflow = 0
# in1=00000000000000000000000000000000 in2=00000000000000000000000000001000 c_in=0 c_out=0 sum=00000000000000000000000000001000 overflow = 0
# in1=00000000000000000000000000000000 in2=00000000000000000000000000001001 c_in=0 c_out=0 sum=00000000000000000000000000001001 overflow = 0
# in1=00000000000000000000000000000001 in2=00000000000000000000000000000000 c_in=0 c_out=0 sum=00000000000000000000000000000001 overflow = 0
