ripple_carry_adder/transcript
# Compile of FullAdder.v was successful.
# Compile of FullAdder_TB.v was successful.
# Compile of RippelCarryAdder.v was successful.
# Compile of RippelCarryAdder_TB.v was successful.
# Compile of SignedRippleCarryAdder.v was successful.
# Compile of SignedRippleCarryAdder_TB.v was successful.
# 6 compiles, 0 failed with no errors.
# Compile of FullAdder.v was successful.
# Compile of FullAdder_TB.v was successful.
# Compile of RippelCarryAdder.v was successful.
# Compile of RippelCarryAdder_TB.v was successful.
# Compile of SignedRippleCarryAdder.v was successful.
# Compile of SignedRippleCarryAdder_TB.v was successful.
# 6 compiles, 0 failed with no errors.
restart -f
# No Design Loaded!
vsim -gui work.RippleCarryAdder_TB
# vsim -gui work.RippleCarryAdder_TB 
# Start time: 23:47:48 on Oct 31,2022
# Loading work.RippleCarryAdder_TB
# Loading work.RippelCarryAdder
# Loading work.Fulladder
vsim -gui work.RippleCarryAdder_TB
# End time: 23:47:59 on Oct 31,2022, Elapsed time: 0:00:11
# Errors: 0, Warnings: 3
# vsim -gui work.RippleCarryAdder_TB 
# Start time: 23:47:59 on Oct 31,2022
# Loading work.RippleCarryAdder_TB
# Loading work.RippelCarryAdder
# Loading work.Fulladder
run -all
# in1=00000000000000000000000000000000 in2=00000000000000000000000000000000 c_in=0 c_out=0 sum=00000000000000000000000000000000
# in1=00000000000000000000000000000000 in2=00000000000000000000000000000001 c_in=0 c_out=0 sum=00000000000000000000000000000001
# in1=00000000000000000000000000000000 in2=00000000000000000000000000000010 c_in=0 c_out=0 sum=00000000000000000000000000000010
# in1=00000000000000000000000000000000 in2=00000000000000000000000000000011 c_in=0 c_out=0 sum=00000000000000000000000000000011
# in1=00000000000000000000000000000000 in2=00000000000000000000000000000100 c_in=0 c_out=0 sum=00000000000000000000000000000100
# in1=00000000000000000000000000000000 in2=00000000000000000000000000000101 c_in=0 c_out=0 sum=00000000000000000000000000000101
# in1=00000000000000000000000000000000 in2=00000000000000000000000000000110 c_in=0 c_out=0 sum=00000000000000000000000000000110
# in1=00000000000000000000000000000000 in2=00000000000000000000000000000111 c_in=0 c_out=0 sum=00000000000000000000000000000111
# in1=00000000000000000000000000000000 in2=00000000000000000000000000001000 c_in=0 c_out=0 sum=00000000000000000000000000001000
# in1=00000000000000000000000000000000 in2=00000000000000000000000000001001 c_in=0 c_out=0 sum=00000000000000000000000000001001
# in1=00000000000000000000000000000001 in2=00000000000000000000000000000000 c_in=0 c_out=0 sum=00000000000000000000000000000001
# in1=00000000000000000000000000000001 in2=00000000000000000000000000000001 c_in=0 c_out=0 sum=00000000000000000000000000000010
# in1=00000000000000000000000000000001 in2=00000000000000000000000000000010 c_in=0 c_out=0 sum=00000000000000000000000000000011
# in1=00000000000000000000000000000001 in2=00000000000000000000000000000011 c_in=0 c_out=0 sum=00000000000000000000000000000100
# in1=00000000000000000000000000000001 in2=00000000000000000000000000000100 c_in=0 c_out=0 sum=00000000000000000000000000000101
# in1=00000000000000000000000000000001 in2=00000000000000000000000000000101 c_in=0 c_out=0 sum=00000000000000000000000000000110
# in1=00000000000000000000000000000001 in2=00000000000000000000000000000110 c_in=0 c_out=0 sum=00000000000000000000000000000111
# in1=00000000000000000000000000000001 in2=00000000000000000000000000000111 c_in=0 c_out=0 sum=00000000000000000000000000001000
# in1=00000000000000000000000000000001 in2=00000000000000000000000000001000 c_in=0 c_out=0 sum=00000000000000000000000000001001
# in1=00000000000000000000000000000001 in2=00000000000000000000000000001001 c_in=0 c_out=0 sum=00000000000000000000000000001010
# in1=00000000000000000000000000000010 in2=00000000000000000000000000000000 c_in=0 c_out=0 sum=00000000000000000000000000000010
# in1=00000000000000000000000000000010 in2=00000000000000000000000000000001 c_in=0 c_out=0 sum=00000000000000000000000000000011
# in1=00000000000000000000000000000010 in2=00000000000000000000000000000010 c_in=0 c_out=0 sum=00000000000000000000000000000100
# in1=00000000000000000000000000000010 in2=00000000000000000000000000000011 c_in=0 c_out=0 sum=00000000000000000000000000000101
# in1=00000000000000000000000000000010 in2=00000000000000000000000000000100 c_in=0 c_out=0 sum=00000000000000000000000000000110
# in1=00000000000000000000000000000010 in2=00000000000000000000000000000101 c_in=0 c_out=0 sum=00000000000000000000000000000111
# in1=00000000000000000000000000000010 in2=00000000000000000000000000000110 c_in=0 c_out=0 sum=00000000000000000000000000001000
# in1=00000000000000000000000000000010 in2=00000000000000000000000000000111 c_in=0 c_out=0 sum=00000000000000000000000000001001
# in1=00000000000000000000000000000010 in2=00000000000000000000000000001000 c_in=0 c_out=0 sum=00000000000000000000000000001010
# in1=00000000000000000000000000000010 in2=00000000000000000000000000001001 c_in=0 c_out=0 sum=00000000000000000000000000001011
# in1=00000000000000000000000000000011 in2=00000000000000000000000000000000 c_in=0 c_out=0 sum=00000000000000000000000000000011
# in1=00000000000000000000000000000011 in2=00000000000000000000000000000001 c_in=0 c_out=0 sum=00000000000000000000000000000100
# in1=00000000000000000000000000000011 in2=00000000000000000000000000000010 c_in=0 c_out=0 sum=00000000000000000000000000000101
# in1=00000000000000000000000000000011 in2=00000000000000000000000000000011 c_in=0 c_out=0 sum=00000000000000000000000000000110
# in1=00000000000000000000000000000011 in2=00000000000000000000000000000100 c_in=0 c_out=0 sum=00000000000000000000000000000111
# in1=00000000000000000000000000000011 in2=00000000000000000000000000000101 c_in=0 c_out=0 sum=00000000000000000000000000001000
# in1=00000000000000000000000000000011 in2=00000000000000000000000000000110 c_in=0 c_out=0 sum=00000000000000000000000000001001
# in1=00000000000000000000000000000011 in2=00000000000000000000000000000111 c_in=0 c_out=0 sum=00000000000000000000000000001010
# in1=00000000000000000000000000000011 in2=00000000000000000000000000001000 c_in=0 c_out=0 sum=00000000000000000000000000001011
# in1=00000000000000000000000000000011 in2=00000000000000000000000000001001 c_in=0 c_out=0 sum=00000000000000000000000000001100
# in1=00000000000000000000000000000100 in2=00000000000000000000000000000000 c_in=0 c_out=0 sum=00000000000000000000000000000100
# in1=00000000000000000000000000000100 in2=00000000000000000000000000000001 c_in=0 c_out=0 sum=00000000000000000000000000000101
# in1=00000000000000000000000000000100 in2=00000000000000000000000000000010 c_in=0 c_out=0 sum=00000000000000000000000000000110
# in1=00000000000000000000000000000100 in2=00000000000000000000000000000011 c_in=0 c_out=0 sum=00000000000000000000000000000111
# in1=00000000000000000000000000000100 in2=00000000000000000000000000000100 c_in=0 c_out=0 sum=00000000000000000000000000001000
# in1=00000000000000000000000000000100 in2=00000000000000000000000000000101 c_in=0 c_out=0 sum=00000000000000000000000000001001
# in1=00000000000000000000000000000100 in2=00000000000000000000000000000110 c_in=0 c_out=0 sum=00000000000000000000000000001010
# in1=00000000000000000000000000000100 in2=00000000000000000000000000000111 c_in=0 c_out=0 sum=00000000000000000000000000001011
# in1=00000000000000000000000000000100 in2=00000000000000000000000000001000 c_in=0 c_out=0 sum=00000000000000000000000000001100
# in1=00000000000000000000000000000100 in2=00000000000000000000000000001001 c_in=0 c_out=0 sum=00000000000000000000000000001101
# in1=00000000000000000000000000000101 in2=00000000000000000000000000000000 c_in=0 c_out=0 sum=00000000000000000000000000000101
# in1=00000000000000000000000000000101 in2=00000000000000000000000000000001 c_in=0 c_out=0 sum=00000000000000000000000000000110
# in1=00000000000000000000000000000101 in2=00000000000000000000000000000010 c_in=0 c_out=0 sum=00000000000000000000000000000111
# in1=00000000000000000000000000000101 in2=00000000000000000000000000000011 c_in=0 c_out=0 sum=00000000000000000000000000001000
# in1=00000000000000000000000000000101 in2=00000000000000000000000000000100 c_in=0 c_out=0 sum=00000000000000000000000000001001
# in1=00000000000000000000000000000101 in2=00000000000000000000000000000101 c_in=0 c_out=0 sum=00000000000000000000000000001010
# in1=00000000000000000000000000000101 in2=00000000000000000000000000000110 c_in=0 c_out=0 sum=00000000000000000000000000001011
# in1=00000000000000000000000000000101 in2=00000000000000000000000000000111 c_in=0 c_out=0 sum=00000000000000000000000000001100
# in1=00000000000000000000000000000101 in2=00000000000000000000000000001000 c_in=0 c_out=0 sum=00000000000000000000000000001101
# in1=00000000000000000000000000000101 in2=00000000000000000000000000001001 c_in=0 c_out=0 sum=00000000000000000000000000001110
# in1=00000000000000000000000000000110 in2=00000000000000000000000000000000 c_in=0 c_out=0 sum=00000000000000000000000000000110
# in1=00000000000000000000000000000110 in2=00000000000000000000000000000001 c_in=0 c_out=0 sum=00000000000000000000000000000111
# in1=00000000000000000000000000000110 in2=00000000000000000000000000000010 c_in=0 c_out=0 sum=00000000000000000000000000001000
# in1=00000000000000000000000000000110 in2=00000000000000000000000000000011 c_in=0 c_out=0 sum=00000000000000000000000000001001
# in1=00000000000000000000000000000110 in2=00000000000000000000000000000100 c_in=0 c_out=0 sum=00000000000000000000000000001010
# in1=00000000000000000000000000000110 in2=00000000000000000000000000000101 c_in=0 c_out=0 sum=00000000000000000000000000001011
# in1=00000000000000000000000000000110 in2=00000000000000000000000000000110 c_in=0 c_out=0 sum=00000000000000000000000000001100
# in1=00000000000000000000000000000110 in2=00000000000000000000000000000111 c_in=0 c_out=0 sum=00000000000000000000000000001101
# in1=00000000000000000000000000000110 in2=00000000000000000000000000001000 c_in=0 c_out=0 sum=00000000000000000000000000001110
# in1=00000000000000000000000000000110 in2=00000000000000000000000000001001 c_in=0 c_out=0 sum=00000000000000000000000000001111
# in1=00000000000000000000000000000111 in2=00000000000000000000000000000000 c_in=0 c_out=0 sum=00000000000000000000000000000111
# in1=00000000000000000000000000000111 in2=00000000000000000000000000000001 c_in=0 c_out=0 sum=00000000000000000000000000001000
# in1=00000000000000000000000000000111 in2=00000000000000000000000000000010 c_in=0 c_out=0 sum=00000000000000000000000000001001
# in1=00000000000000000000000000000111 in2=00000000000000000000000000000011 c_in=0 c_out=0 sum=00000000000000000000000000001010
# in1=00000000000000000000000000000111 in2=00000000000000000000000000000100 c_in=0 c_out=0 sum=00000000000000000000000000001011
# in1=00000000000000000000000000000111 in2=00000000000000000000000000000101 c_in=0 c_out=0 sum=00000000000000000000000000001100
# in1=00000000000000000000000000000111 in2=00000000000000000000000000000110 c_in=0 c_out=0 sum=00000000000000000000000000001101
# in1=00000000000000000000000000000111 in2=00000000000000000000000000000111 c_in=0 c_out=0 sum=00000000000000000000000000001110
# in1=00000000000000000000000000000111 in2=00000000000000000000000000001000 c_in=0 c_out=0 sum=00000000000000000000000000001111
# in1=00000000000000000000000000000111 in2=00000000000000000000000000001001 c_in=0 c_out=0 sum=00000000000000000000000000010000
# in1=00000000000000000000000000001000 in2=00000000000000000000000000000000 c_in=0 c_out=0 sum=00000000000000000000000000001000
# in1=00000000000000000000000000001000 in2=00000000000000000000000000000001 c_in=0 c_out=0 sum=00000000000000000000000000001001
# in1=00000000000000000000000000001000 in2=00000000000000000000000000000010 c_in=0 c_out=0 sum=00000000000000000000000000001010
# in1=00000000000000000000000000001000 in2=00000000000000000000000000000011 c_in=0 c_out=0 sum=00000000000000000000000000001011
# in1=00000000000000000000000000001000 in2=00000000000000000000000000000100 c_in=0 c_out=0 sum=00000000000000000000000000001100
# in1=00000000000000000000000000001000 in2=00000000000000000000000000000101 c_in=0 c_out=0 sum=00000000000000000000000000001101
# in1=00000000000000000000000000001000 in2=00000000000000000000000000000110 c_in=0 c_out=0 sum=00000000000000000000000000001110
# in1=00000000000000000000000000001000 in2=00000000000000000000000000000111 c_in=0 c_out=0 sum=00000000000000000000000000001111
# in1=00000000000000000000000000001000 in2=00000000000000000000000000001000 c_in=0 c_out=0 sum=00000000000000000000000000010000
# in1=00000000000000000000000000001000 in2=00000000000000000000000000001001 c_in=0 c_out=0 sum=00000000000000000000000000010001
# in1=00000000000000000000000000001001 in2=00000000000000000000000000000000 c_in=0 c_out=0 sum=00000000000000000000000000001001
# in1=00000000000000000000000000001001 in2=00000000000000000000000000000001 c_in=0 c_out=0 sum=00000000000000000000000000001010
# in1=00000000000000000000000000001001 in2=00000000000000000000000000000010 c_in=0 c_out=0 sum=00000000000000000000000000001011
# in1=00000000000000000000000000001001 in2=00000000000000000000000000000011 c_in=0 c_out=0 sum=00000000000000000000000000001100
# in1=00000000000000000000000000001001 in2=00000000000000000000000000000100 c_in=0 c_out=0 sum=00000000000000000000000000001101
# in1=00000000000000000000000000001001 in2=00000000000000000000000000000101 c_in=0 c_out=0 sum=00000000000000000000000000001110
# in1=00000000000000000000000000001001 in2=00000000000000000000000000000110 c_in=0 c_out=0 sum=00000000000000000000000000001111
# in1=00000000000000000000000000001001 in2=00000000000000000000000000000111 c_in=0 c_out=0 sum=00000000000000000000000000010000
# in1=00000000000000000000000000001001 in2=00000000000000000000000000001000 c_in=0 c_out=0 sum=00000000000000000000000000010001
# in1=00000000000000000000000000001001 in2=00000000000000000000000000001001 c_in=0 c_out=0 sum=00000000000000000000000000010010
# in1=00000000000000000000000000000000 in2=00000000000000000000000000000000 c_in=1 c_out=0 sum=00000000000000000000000000000001
# in1=00000000000000000000000000000000 in2=00000000000000000000000000000001 c_in=1 c_out=0 sum=00000000000000000000000000000010
# in1=00000000000000000000000000000000 in2=00000000000000000000000000000010 c_in=1 c_out=0 sum=00000000000000000000000000000011
# in1=00000000000000000000000000000000 in2=00000000000000000000000000000011 c_in=1 c_out=0 sum=00000000000000000000000000000100
# in1=00000000000000000000000000000000 in2=00000000000000000000000000000100 c_in=1 c_out=0 sum=00000000000000000000000000000101
# in1=00000000000000000000000000000000 in2=00000000000000000000000000000101 c_in=1 c_out=0 sum=00000000000000000000000000000110
# in1=00000000000000000000000000000000 in2=00000000000000000000000000000110 c_in=1 c_out=0 sum=00000000000000000000000000000111
# in1=00000000000000000000000000000000 in2=00000000000000000000000000000111 c_in=1 c_out=0 sum=00000000000000000000000000001000
# in1=00000000000000000000000000000000 in2=00000000000000000000000000001000 c_in=1 c_out=0 sum=00000000000000000000000000001001
# in1=00000000000000000000000000000000 in2=00000000000000000000000000001001 c_in=1 c_out=0 sum=00000000000000000000000000001010
# in1=00000000000000000000000000000001 in2=00000000000000000000000000000000 c_in=1 c_out=0 sum=00000000000000000000000000000010
# in1=00000000000000000000000000000001 in2=00000000000000000000000000000001 c_in=1 c_out=0 sum=00000000000000000000000000000011
# in1=00000000000000000000000000000001 in2=00000000000000000000000000000010 c_in=1 c_out=0 sum=00000000000000000000000000000100
# in1=00000000000000000000000000000001 in2=00000000000000000000000000000011 c_in=1 c_out=0 sum=00000000000000000000000000000101
# in1=00000000000000000000000000000001 in2=00000000000000000000000000000100 c_in=1 c_out=0 sum=00000000000000000000000000000110
# in1=00000000000000000000000000000001 in2=00000000000000000000000000000101 c_in=1 c_out=0 sum=00000000000000000000000000000111
# in1=00000000000000000000000000000001 in2=00000000000000000000000000000110 c_in=1 c_out=0 sum=00000000000000000000000000001000
# in1=00000000000000000000000000000001 in2=00000000000000000000000000000111 c_in=1 c_out=0 sum=00000000000000000000000000001001
# in1=00000000000000000000000000000001 in2=00000000000000000000000000001000 c_in=1 c_out=0 sum=00000000000000000000000000001010
# in1=00000000000000000000000000000001 in2=00000000000000000000000000001001 c_in=1 c_out=0 sum=00000000000000000000000000001011
# in1=00000000000000000000000000000010 in2=00000000000000000000000000000000 c_in=1 c_out=0 sum=00000000000000000000000000000011
# in1=00000000000000000000000000000010 in2=00000000000000000000000000000001 c_in=1 c_out=0 sum=00000000000000000000000000000100
# in1=00000000000000000000000000000010 in2=00000000000000000000000000000010 c_in=1 c_out=0 sum=00000000000000000000000000000101
# in1=00000000000000000000000000000010 in2=00000000000000000000000000000011 c_in=1 c_out=0 sum=00000000000000000000000000000110
# in1=00000000000000000000000000000010 in2=00000000000000000000000000000100 c_in=1 c_out=0 sum=00000000000000000000000000000111
# in1=00000000000000000000000000000010 in2=00000000000000000000000000000101 c_in=1 c_out=0 sum=00000000000000000000000000001000
# in1=00000000000000000000000000000010 in2=00000000000000000000000000000110 c_in=1 c_out=0 sum=00000000000000000000000000001001
# in1=00000000000000000000000000000010 in2=00000000000000000000000000000111 c_in=1 c_out=0 sum=00000000000000000000000000001010
# in1=00000000000000000000000000000010 in2=00000000000000000000000000001000 c_in=1 c_out=0 sum=00000000000000000000000000001011
# in1=00000000000000000000000000000010 in2=00000000000000000000000000001001 c_in=1 c_out=0 sum=00000000000000000000000000001100
# in1=00000000000000000000000000000011 in2=00000000000000000000000000000000 c_in=1 c_out=0 sum=00000000000000000000000000000100
# in1=00000000000000000000000000000011 in2=00000000000000000000000000000001 c_in=1 c_out=0 sum=00000000000000000000000000000101
# in1=00000000000000000000000000000011 in2=00000000000000000000000000000010 c_in=1 c_out=0 sum=00000000000000000000000000000110
# in1=00000000000000000000000000000011 in2=00000000000000000000000000000011 c_in=1 c_out=0 sum=00000000000000000000000000000111
# in1=00000000000000000000000000000011 in2=00000000000000000000000000000100 c_in=1 c_out=0 sum=00000000000000000000000000001000
# in1=00000000000000000000000000000011 in2=00000000000000000000000000000101 c_in=1 c_out=0 sum=00000000000000000000000000001001
# in1=00000000000000000000000000000011 in2=00000000000000000000000000000110 c_in=1 c_out=0 sum=00000000000000000000000000001010
# in1=00000000000000000000000000000011 in2=00000000000000000000000000000111 c_in=1 c_out=0 sum=00000000000000000000000000001011
# in1=00000000000000000000000000000011 in2=00000000000000000000000000001000 c_in=1 c_out=0 sum=00000000000000000000000000001100
# in1=00000000000000000000000000000011 in2=00000000000000000000000000001001 c_in=1 c_out=0 sum=00000000000000000000000000001101
# in1=00000000000000000000000000000100 in2=00000000000000000000000000000000 c_in=1 c_out=0 sum=00000000000000000000000000000101
# in1=00000000000000000000000000000100 in2=00000000000000000000000000000001 c_in=1 c_out=0 sum=00000000000000000000000000000110
# in1=00000000000000000000000000000100 in2=00000000000000000000000000000010 c_in=1 c_out=0 sum=00000000000000000000000000000111
# in1=00000000000000000000000000000100 in2=00000000000000000000000000000011 c_in=1 c_out=0 sum=00000000000000000000000000001000
# in1=00000000000000000000000000000100 in2=00000000000000000000000000000100 c_in=1 c_out=0 sum=00000000000000000000000000001001
# in1=00000000000000000000000000000100 in2=00000000000000000000000000000101 c_in=1 c_out=0 sum=00000000000000000000000000001010
# in1=00000000000000000000000000000100 in2=00000000000000000000000000000110 c_in=1 c_out=0 sum=00000000000000000000000000001011
# in1=00000000000000000000000000000100 in2=00000000000000000000000000000111 c_in=1 c_out=0 sum=00000000000000000000000000001100
# in1=00000000000000000000000000000100 in2=00000000000000000000000000001000 c_in=1 c_out=0 sum=00000000000000000000000000001101
# in1=00000000000000000000000000000100 in2=00000000000000000000000000001001 c_in=1 c_out=0 sum=00000000000000000000000000001110
# in1=00000000000000000000000000000101 in2=00000000000000000000000000000000 c_in=1 c_out=0 sum=00000000000000000000000000000110
# in1=00000000000000000000000000000101 in2=00000000000000000000000000000001 c_in=1 c_out=0 sum=00000000000000000000000000000111
# in1=00000000000000000000000000000101 in2=00000000000000000000000000000010 c_in=1 c_out=0 sum=00000000000000000000000000001000
# in1=00000000000000000000000000000101 in2=00000000000000000000000000000011 c_in=1 c_out=0 sum=00000000000000000000000000001001
# in1=00000000000000000000000000000101 in2=00000000000000000000000000000100 c_in=1 c_out=0 sum=00000000000000000000000000001010
# in1=00000000000000000000000000000101 in2=00000000000000000000000000000101 c_in=1 c_out=0 sum=00000000000000000000000000001011
# in1=00000000000000000000000000000101 in2=00000000000000000000000000000110 c_in=1 c_out=0 sum=00000000000000000000000000001100
# in1=00000000000000000000000000000101 in2=00000000000000000000000000000111 c_in=1 c_out=0 sum=00000000000000000000000000001101
# in1=00000000000000000000000000000101 in2=00000000000000000000000000001000 c_in=1 c_out=0 sum=00000000000000000000000000001110
# in1=00000000000000000000000000000101 in2=00000000000000000000000000001001 c_in=1 c_out=0 sum=00000000000000000000000000001111
# in1=00000000000000000000000000000110 in2=00000000000000000000000000000000 c_in=1 c_out=0 sum=00000000000000000000000000000111
# in1=00000000000000000000000000000110 in2=00000000000000000000000000000001 c_in=1 c_out=0 sum=00000000000000000000000000001000
# in1=00000000000000000000000000000110 in2=00000000000000000000000000000010 c_in=1 c_out=0 sum=00000000000000000000000000001001
# in1=00000000000000000000000000000110 in2=00000000000000000000000000000011 c_in=1 c_out=0 sum=00000000000000000000000000001010
# in1=00000000000000000000000000000110 in2=00000000000000000000000000000100 c_in=1 c_out=0 sum=00000000000000000000000000001011
# in1=00000000000000000000000000000110 in2=00000000000000000000000000000101 c_in=1 c_out=0 sum=00000000000000000000000000001100
# in1=00000000000000000000000000000110 in2=00000000000000000000000000000110 c_in=1 c_out=0 sum=00000000000000000000000000001101
# in1=00000000000000000000000000000110 in2=00000000000000000000000000000111 c_in=1 c_out=0 sum=00000000000000000000000000001110
# in1=00000000000000000000000000000110 in2=00000000000000000000000000001000 c_in=1 c_out=0 sum=00000000000000000000000000001111
# in1=00000000000000000000000000000110 in2=00000000000000000000000000001001 c_in=1 c_out=0 sum=00000000000000000000000000010000
# in1=00000000000000000000000000000111 in2=00000000000000000000000000000000 c_in=1 c_out=0 sum=00000000000000000000000000001000
# in1=00000000000000000000000000000111 in2=00000000000000000000000000000001 c_in=1 c_out=0 sum=00000000000000000000000000001001
# in1=00000000000000000000000000000111 in2=00000000000000000000000000000010 c_in=1 c_out=0 sum=00000000000000000000000000001010
# in1=00000000000000000000000000000111 in2=00000000000000000000000000000011 c_in=1 c_out=0 sum=00000000000000000000000000001011
# in1=00000000000000000000000000000111 in2=00000000000000000000000000000100 c_in=1 c_out=0 sum=00000000000000000000000000001100
# in1=00000000000000000000000000000111 in2=00000000000000000000000000000101 c_in=1 c_out=0 sum=00000000000000000000000000001101
# in1=00000000000000000000000000000111 in2=00000000000000000000000000000110 c_in=1 c_out=0 sum=00000000000000000000000000001110
# in1=00000000000000000000000000000111 in2=00000000000000000000000000000111 c_in=1 c_out=0 sum=00000000000000000000000000001111
# in1=00000000000000000000000000000111 in2=00000000000000000000000000001000 c_in=1 c_out=0 sum=00000000000000000000000000010000
# in1=00000000000000000000000000000111 in2=00000000000000000000000000001001 c_in=1 c_out=0 sum=00000000000000000000000000010001
# in1=00000000000000000000000000001000 in2=00000000000000000000000000000000 c_in=1 c_out=0 sum=00000000000000000000000000001001
# in1=00000000000000000000000000001000 in2=00000000000000000000000000000001 c_in=1 c_out=0 sum=00000000000000000000000000001010
# in1=00000000000000000000000000001000 in2=00000000000000000000000000000010 c_in=1 c_out=0 sum=00000000000000000000000000001011
# in1=00000000000000000000000000001000 in2=00000000000000000000000000000011 c_in=1 c_out=0 sum=00000000000000000000000000001100
# in1=00000000000000000000000000001000 in2=00000000000000000000000000000100 c_in=1 c_out=0 sum=00000000000000000000000000001101
# in1=00000000000000000000000000001000 in2=00000000000000000000000000000101 c_in=1 c_out=0 sum=00000000000000000000000000001110
# in1=00000000000000000000000000001000 in2=00000000000000000000000000000110 c_in=1 c_out=0 sum=00000000000000000000000000001111
# in1=00000000000000000000000000001000 in2=00000000000000000000000000000111 c_in=1 c_out=0 sum=00000000000000000000000000010000
# in1=00000000000000000000000000001000 in2=00000000000000000000000000001000 c_in=1 c_out=0 sum=00000000000000000000000000010001
# in1=00000000000000000000000000001000 in2=00000000000000000000000000001001 c_in=1 c_out=0 sum=00000000000000000000000000010010
# in1=00000000000000000000000000001001 in2=00000000000000000000000000000000 c_in=1 c_out=0 sum=00000000000000000000000000001010
# in1=00000000000000000000000000001001 in2=00000000000000000000000000000001 c_in=1 c_out=0 sum=00000000000000000000000000001011
# in1=00000000000000000000000000001001 in2=00000000000000000000000000000010 c_in=1 c_out=0 sum=00000000000000000000000000001100
# in1=00000000000000000000000000001001 in2=00000000000000000000000000000011 c_in=1 c_out=0 sum=00000000000000000000000000001101
# in1=00000000000000000000000000001001 in2=00000000000000000000000000000100 c_in=1 c_out=0 sum=00000000000000000000000000001110
# in1=00000000000000000000000000001001 in2=00000000000000000000000000000101 c_in=1 c_out=0 sum=00000000000000000000000000001111
# in1=00000000000000000000000000001001 in2=00000000000000000000000000000110 c_in=1 c_out=0 sum=00000000000000000000000000010000
# in1=00000000000000000000000000001001 in2=00000000000000000000000000000111 c_in=1 c_out=0 sum=00000000000000000000000000010001
# in1=00000000000000000000000000001001 in2=00000000000000000000000000001000 c_in=1 c_out=0 sum=00000000000000000000000000010010
# in1=00000000000000000000000000001001 in2=00000000000000000000000000001001 c_in=1 c_out=0 sum=00000000000000000000000000010011
# 
# 
# Test Overflow
# 
# 
# in1=11111111111111111111111111111111 in2=11111111111111111111111111111111 c_in=0 c_out=1 sum=11111111111111111111111111111110
# in1=11111111111111111111111111111111 in2=11111111111111111111111111111111 c_in=1 c_out=1 sum=11111111111111111111111111111111
# in1=11111111111111111111111111111111 in2=00000000000000000000000000000000 c_in=0 c_out=0 sum=11111111111111111111111111111111
# in1=00000000000000000000000000000000 in2=11111111111111111111111111111111 c_in=0 c_out=0 sum=11111111111111111111111111111111
# 
# 
# Test negative numbers
# 
# 
# in1=11111111111111111111111111111111 in2=00000000000000000000000000000001 c_in=0 c_out=1 sum=00000000000000000000000000000000
# in1=00000000000000000000000000001010 in2=00000000000000000000000000000101 c_in=0 c_out=0 sum=00000000000000000000000000001111
# in1=00000000000000000000000000000000 in2=00000000000000000000000000000000 c_in=0 c_out=0 sum=00000000000000000000000000000000
# in1=11111111111111111111111111110110 in2=00000000000000000000000000000101 c_in=0 c_out=0 sum=11111111111111111111111111111011
# in1=11111111111111111111111111110110 in2=11111111111111111111111111111011 c_in=0 c_out=1 sum=11111111111111111111111111110001
# End time: 23:48:57 on Oct 31,2022, Elapsed time: 0:00:58
# Errors: 0, Warnings: 1
