carry_skip_adder/transcript
vsim -gui work.CSA_tb
# vsim -gui work.CSA_tb 
# Start time: 23:09:08 on Oct 28,2022
# Loading work.CSA_tb
# Loading work.CSA
# Loading work.RippelCarryAdder
# Loading work.CSAPropagate
# Loading work.mux_2x1
# Loading work.Fulladder
# ** Warning: (vsim-3015) [PCDPC] - Port size (4) does not match connection size (32) for port 'prog'. The port definition is at: E:/CMP/5th Semester/VLSI/Project/CarrySkipAdderInterface.v(7).
#    Time: 0 ps  Iteration: 0  Instance: /CSA_tb/CSA_tb/CSAP File: E:/CMP/5th Semester/VLSI/Project/CarrySkipAdder.v Line: 12
add wave -position end sim:/CSA_tb/*
run -all
# in1=00000000000000000000000000000000 in2=00000000000000000000000000000000 cin=0 cout=0 sum=00000000000000000000000000000000
# in1=00000000000000000000000000000000 in2=00000000000000000000000000000001 cin=0 cout=0 sum=00000000000000000000000000000001
# in1=00000000000000000000000000000000 in2=00000000000000000000000000000010 cin=0 cout=0 sum=00000000000000000000000000000010
# in1=00000000000000000000000000000000 in2=00000000000000000000000000000011 cin=0 cout=0 sum=00000000000000000000000000000011
# in1=00000000000000000000000000000000 in2=00000000000000000000000000000100 cin=0 cout=0 sum=00000000000000000000000000000100
# in1=00000000000000000000000000000000 in2=00000000000000000000000000000101 cin=0 cout=0 sum=00000000000000000000000000000101
# in1=00000000000000000000000000000000 in2=00000000000000000000000000000110 cin=0 cout=0 sum=00000000000000000000000000000110
# in1=00000000000000000000000000000000 in2=00000000000000000000000000000111 cin=0 cout=0 sum=00000000000000000000000000000111
# in1=00000000000000000000000000000000 in2=00000000000000000000000000001000 cin=0 cout=0 sum=00000000000000000000000000001000
# in1=00000000000000000000000000000000 in2=00000000000000000000000000001001 cin=0 cout=0 sum=00000000000000000000000000001001
# in1=00000000000000000000000000000001 in2=00000000000000000000000000000000 cin=0 cout=0 sum=00000000000000000000000000000001
# in1=00000000000000000000000000000001 in2=00000000000000000000000000000001 cin=0 cout=0 sum=00000000000000000000000000000010
# in1=00000000000000000000000000000001 in2=00000000000000000000000000000010 cin=0 cout=0 sum=00000000000000000000000000000011
# in1=00000000000000000000000000000001 in2=00000000000000000000000000000011 cin=0 cout=0 sum=00000000000000000000000000000100
# in1=00000000000000000000000000000001 in2=00000000000000000000000000000100 cin=0 cout=0 sum=00000000000000000000000000000101
# in1=00000000000000000000000000000001 in2=00000000000000000000000000000101 cin=0 cout=0 sum=00000000000000000000000000000110
# in1=00000000000000000000000000000001 in2=00000000000000000000000000000110 cin=0 cout=0 sum=00000000000000000000000000000111
# in1=00000000000000000000000000000001 in2=00000000000000000000000000000111 cin=0 cout=0 sum=00000000000000000000000000001000
# in1=00000000000000000000000000000001 in2=00000000000000000000000000001000 cin=0 cout=0 sum=00000000000000000000000000001001
# in1=00000000000000000000000000000001 in2=00000000000000000000000000001001 cin=0 cout=0 sum=00000000000000000000000000001010
# in1=00000000000000000000000000000010 in2=00000000000000000000000000000000 cin=0 cout=0 sum=00000000000000000000000000000010
# in1=00000000000000000000000000000010 in2=00000000000000000000000000000001 cin=0 cout=0 sum=00000000000000000000000000000011
# in1=00000000000000000000000000000010 in2=00000000000000000000000000000010 cin=0 cout=0 sum=00000000000000000000000000000100
# in1=00000000000000000000000000000010 in2=00000000000000000000000000000011 cin=0 cout=0 sum=00000000000000000000000000000101
# in1=00000000000000000000000000000010 in2=00000000000000000000000000000100 cin=0 cout=0 sum=00000000000000000000000000000110
# in1=00000000000000000000000000000010 in2=00000000000000000000000000000101 cin=0 cout=0 sum=00000000000000000000000000000111
# in1=00000000000000000000000000000010 in2=00000000000000000000000000000110 cin=0 cout=0 sum=00000000000000000000000000001000
# in1=00000000000000000000000000000010 in2=00000000000000000000000000000111 cin=0 cout=0 sum=00000000000000000000000000001001
# in1=00000000000000000000000000000010 in2=00000000000000000000000000001000 cin=0 cout=0 sum=00000000000000000000000000001010
# in1=00000000000000000000000000000010 in2=00000000000000000000000000001001 cin=0 cout=0 sum=00000000000000000000000000001011
# in1=00000000000000000000000000000011 in2=00000000000000000000000000000000 cin=0 cout=0 sum=00000000000000000000000000000011
# in1=00000000000000000000000000000011 in2=00000000000000000000000000000001 cin=0 cout=0 sum=00000000000000000000000000000100
# in1=00000000000000000000000000000011 in2=00000000000000000000000000000010 cin=0 cout=0 sum=00000000000000000000000000000101
# in1=00000000000000000000000000000011 in2=00000000000000000000000000000011 cin=0 cout=0 sum=00000000000000000000000000000110
# in1=00000000000000000000000000000011 in2=00000000000000000000000000000100 cin=0 cout=0 sum=00000000000000000000000000000111
# in1=00000000000000000000000000000011 in2=00000000000000000000000000000101 cin=0 cout=0 sum=00000000000000000000000000001000
# in1=00000000000000000000000000000011 in2=00000000000000000000000000000110 cin=0 cout=0 sum=00000000000000000000000000001001
# in1=00000000000000000000000000000011 in2=00000000000000000000000000000111 cin=0 cout=0 sum=00000000000000000000000000001010
# in1=00000000000000000000000000000011 in2=00000000000000000000000000001000 cin=0 cout=0 sum=00000000000000000000000000001011
# in1=00000000000000000000000000000011 in2=00000000000000000000000000001001 cin=0 cout=0 sum=00000000000000000000000000001100
# in1=00000000000000000000000000000100 in2=00000000000000000000000000000000 cin=0 cout=0 sum=00000000000000000000000000000100
# in1=00000000000000000000000000000100 in2=00000000000000000000000000000001 cin=0 cout=0 sum=00000000000000000000000000000101
# in1=00000000000000000000000000000100 in2=00000000000000000000000000000010 cin=0 cout=0 sum=00000000000000000000000000000110
# in1=00000000000000000000000000000100 in2=00000000000000000000000000000011 cin=0 cout=0 sum=00000000000000000000000000000111
# in1=00000000000000000000000000000100 in2=00000000000000000000000000000100 cin=0 cout=0 sum=00000000000000000000000000001000
# in1=00000000000000000000000000000100 in2=00000000000000000000000000000101 cin=0 cout=0 sum=00000000000000000000000000001001
# in1=00000000000000000000000000000100 in2=00000000000000000000000000000110 cin=0 cout=0 sum=00000000000000000000000000001010
# in1=00000000000000000000000000000100 in2=00000000000000000000000000000111 cin=0 cout=0 sum=00000000000000000000000000001011
# in1=00000000000000000000000000000100 in2=00000000000000000000000000001000 cin=0 cout=0 sum=00000000000000000000000000001100
# in1=00000000000000000000000000000100 in2=00000000000000000000000000001001 cin=0 cout=0 sum=00000000000000000000000000001101
# in1=00000000000000000000000000000101 in2=00000000000000000000000000000000 cin=0 cout=0 sum=00000000000000000000000000000101
# in1=00000000000000000000000000000101 in2=00000000000000000000000000000001 cin=0 cout=0 sum=00000000000000000000000000000110
# in1=00000000000000000000000000000101 in2=00000000000000000000000000000010 cin=0 cout=0 sum=00000000000000000000000000000111
# in1=00000000000000000000000000000101 in2=00000000000000000000000000000011 cin=0 cout=0 sum=00000000000000000000000000001000
# in1=00000000000000000000000000000101 in2=00000000000000000000000000000100 cin=0 cout=0 sum=00000000000000000000000000001001
# in1=00000000000000000000000000000101 in2=00000000000000000000000000000101 cin=0 cout=0 sum=00000000000000000000000000001010
# in1=00000000000000000000000000000101 in2=00000000000000000000000000000110 cin=0 cout=0 sum=00000000000000000000000000001011
# in1=00000000000000000000000000000101 in2=00000000000000000000000000000111 cin=0 cout=0 sum=00000000000000000000000000001100
# in1=00000000000000000000000000000101 in2=00000000000000000000000000001000 cin=0 cout=0 sum=00000000000000000000000000001101
# in1=00000000000000000000000000000101 in2=00000000000000000000000000001001 cin=0 cout=0 sum=00000000000000000000000000001110
# in1=00000000000000000000000000000110 in2=00000000000000000000000000000000 cin=0 cout=0 sum=00000000000000000000000000000110
# in1=00000000000000000000000000000110 in2=00000000000000000000000000000001 cin=0 cout=0 sum=00000000000000000000000000000111
# in1=00000000000000000000000000000110 in2=00000000000000000000000000000010 cin=0 cout=0 sum=00000000000000000000000000001000
# in1=00000000000000000000000000000110 in2=00000000000000000000000000000011 cin=0 cout=0 sum=00000000000000000000000000001001
# in1=00000000000000000000000000000110 in2=00000000000000000000000000000100 cin=0 cout=0 sum=00000000000000000000000000001010
# in1=00000000000000000000000000000110 in2=00000000000000000000000000000101 cin=0 cout=0 sum=00000000000000000000000000001011
# in1=00000000000000000000000000000110 in2=00000000000000000000000000000110 cin=0 cout=0 sum=00000000000000000000000000001100
# in1=00000000000000000000000000000110 in2=00000000000000000000000000000111 cin=0 cout=0 sum=00000000000000000000000000001101
# in1=00000000000000000000000000000110 in2=00000000000000000000000000001000 cin=0 cout=0 sum=00000000000000000000000000001110
# in1=00000000000000000000000000000110 in2=00000000000000000000000000001001 cin=0 cout=0 sum=00000000000000000000000000001111
# in1=00000000000000000000000000000111 in2=00000000000000000000000000000000 cin=0 cout=0 sum=00000000000000000000000000000111
# in1=00000000000000000000000000000111 in2=00000000000000000000000000000001 cin=0 cout=0 sum=00000000000000000000000000001000
# in1=00000000000000000000000000000111 in2=00000000000000000000000000000010 cin=0 cout=0 sum=00000000000000000000000000001001
# in1=00000000000000000000000000000111 in2=00000000000000000000000000000011 cin=0 cout=0 sum=00000000000000000000000000001010
# in1=00000000000000000000000000000111 in2=00000000000000000000000000000100 cin=0 cout=0 sum=00000000000000000000000000001011
# in1=00000000000000000000000000000111 in2=00000000000000000000000000000101 cin=0 cout=0 sum=00000000000000000000000000001100
# in1=00000000000000000000000000000111 in2=00000000000000000000000000000110 cin=0 cout=0 sum=00000000000000000000000000001101
# in1=00000000000000000000000000000111 in2=00000000000000000000000000000111 cin=0 cout=0 sum=00000000000000000000000000001110
# in1=00000000000000000000000000000111 in2=00000000000000000000000000001000 cin=0 cout=0 sum=00000000000000000000000000001111
# in1=00000000000000000000000000000111 in2=00000000000000000000000000001001 cin=0 cout=0 sum=00000000000000000000000000010000
# in1=00000000000000000000000000001000 in2=00000000000000000000000000000000 cin=0 cout=0 sum=00000000000000000000000000001000
# in1=00000000000000000000000000001000 in2=00000000000000000000000000000001 cin=0 cout=0 sum=00000000000000000000000000001001
# in1=00000000000000000000000000001000 in2=00000000000000000000000000000010 cin=0 cout=0 sum=00000000000000000000000000001010
# in1=00000000000000000000000000001000 in2=00000000000000000000000000000011 cin=0 cout=0 sum=00000000000000000000000000001011
# in1=00000000000000000000000000001000 in2=00000000000000000000000000000100 cin=0 cout=0 sum=00000000000000000000000000001100
# in1=00000000000000000000000000001000 in2=00000000000000000000000000000101 cin=0 cout=0 sum=00000000000000000000000000001101
# in1=00000000000000000000000000001000 in2=00000000000000000000000000000110 cin=0 cout=0 sum=00000000000000000000000000001110
# in1=00000000000000000000000000001000 in2=00000000000000000000000000000111 cin=0 cout=0 sum=00000000000000000000000000001111
# in1=00000000000000000000000000001000 in2=00000000000000000000000000001000 cin=0 cout=0 sum=00000000000000000000000000010000
# in1=00000000000000000000000000001000 in2=00000000000000000000000000001001 cin=0 cout=0 sum=00000000000000000000000000010001
# in1=00000000000000000000000000001001 in2=00000000000000000000000000000000 cin=0 cout=0 sum=00000000000000000000000000001001
# in1=00000000000000000000000000001001 in2=00000000000000000000000000000001 cin=0 cout=0 sum=00000000000000000000000000001010
# in1=00000000000000000000000000001001 in2=00000000000000000000000000000010 cin=0 cout=0 sum=00000000000000000000000000001011
# in1=00000000000000000000000000001001 in2=00000000000000000000000000000011 cin=0 cout=0 sum=00000000000000000000000000001100
# in1=00000000000000000000000000001001 in2=00000000000000000000000000000100 cin=0 cout=0 sum=00000000000000000000000000001101
# in1=00000000000000000000000000001001 in2=00000000000000000000000000000101 cin=0 cout=0 sum=00000000000000000000000000001110
# in1=00000000000000000000000000001001 in2=00000000000000000000000000000110 cin=0 cout=0 sum=00000000000000000000000000001111
# in1=00000000000000000000000000001001 in2=00000000000000000000000000000111 cin=0 cout=0 sum=00000000000000000000000000010000
# in1=00000000000000000000000000001001 in2=00000000000000000000000000001000 cin=0 cout=0 sum=00000000000000000000000000010001
# in1=00000000000000000000000000001001 in2=00000000000000000000000000001001 cin=0 cout=0 sum=00000000000000000000000000010010
# in1=00000000000000000000000000000000 in2=00000000000000000000000000000000 cin=1 cout=x sum=00000000000000000000000000000001
# in1=00000000000000000000000000000000 in2=00000000000000000000000000000001 cin=1 cout=x sum=00000000000000000000000000000010
# in1=00000000000000000000000000000000 in2=00000000000000000000000000000010 cin=1 cout=x sum=00000000000000000000000000000011
# in1=00000000000000000000000000000000 in2=00000000000000000000000000000011 cin=1 cout=x sum=00000000000000000000000000000100
# in1=00000000000000000000000000000000 in2=00000000000000000000000000000100 cin=1 cout=x sum=00000000000000000000000000000101
# in1=00000000000000000000000000000000 in2=00000000000000000000000000000101 cin=1 cout=x sum=00000000000000000000000000000110
# in1=00000000000000000000000000000000 in2=00000000000000000000000000000110 cin=1 cout=x sum=00000000000000000000000000000111
# in1=00000000000000000000000000000000 in2=00000000000000000000000000000111 cin=1 cout=x sum=00000000000000000000000000001000
# in1=00000000000000000000000000000000 in2=00000000000000000000000000001000 cin=1 cout=x sum=00000000000000000000000000001001
# in1=00000000000000000000000000000000 in2=00000000000000000000000000001001 cin=1 cout=x sum=00000000000000000000000000001010
# in1=00000000000000000000000000000001 in2=00000000000000000000000000000000 cin=1 cout=x sum=00000000000000000000000000000010
# in1=00000000000000000000000000000001 in2=00000000000000000000000000000001 cin=1 cout=x sum=00000000000000000000000000000011
# in1=00000000000000000000000000000001 in2=00000000000000000000000000000010 cin=1 cout=x sum=00000000000000000000000000000100
# in1=00000000000000000000000000000001 in2=00000000000000000000000000000011 cin=1 cout=x sum=00000000000000000000000000000101
# in1=00000000000000000000000000000001 in2=00000000000000000000000000000100 cin=1 cout=x sum=00000000000000000000000000000110
# in1=00000000000000000000000000000001 in2=00000000000000000000000000000101 cin=1 cout=x sum=00000000000000000000000000000111
# in1=00000000000000000000000000000001 in2=00000000000000000000000000000110 cin=1 cout=x sum=00000000000000000000000000001000
# in1=00000000000000000000000000000001 in2=00000000000000000000000000000111 cin=1 cout=x sum=00000000000000000000000000001001
# in1=00000000000000000000000000000001 in2=00000000000000000000000000001000 cin=1 cout=x sum=00000000000000000000000000001010
# in1=00000000000000000000000000000001 in2=00000000000000000000000000001001 cin=1 cout=x sum=00000000000000000000000000001011
# in1=00000000000000000000000000000010 in2=00000000000000000000000000000000 cin=1 cout=x sum=00000000000000000000000000000011
# in1=00000000000000000000000000000010 in2=00000000000000000000000000000001 cin=1 cout=x sum=00000000000000000000000000000100
# in1=00000000000000000000000000000010 in2=00000000000000000000000000000010 cin=1 cout=x sum=00000000000000000000000000000101
# in1=00000000000000000000000000000010 in2=00000000000000000000000000000011 cin=1 cout=x sum=00000000000000000000000000000110
# in1=00000000000000000000000000000010 in2=00000000000000000000000000000100 cin=1 cout=x sum=00000000000000000000000000000111
# in1=00000000000000000000000000000010 in2=00000000000000000000000000000101 cin=1 cout=x sum=00000000000000000000000000001000
# in1=00000000000000000000000000000010 in2=00000000000000000000000000000110 cin=1 cout=x sum=00000000000000000000000000001001
# in1=00000000000000000000000000000010 in2=00000000000000000000000000000111 cin=1 cout=x sum=00000000000000000000000000001010
# in1=00000000000000000000000000000010 in2=00000000000000000000000000001000 cin=1 cout=x sum=00000000000000000000000000001011
# in1=00000000000000000000000000000010 in2=00000000000000000000000000001001 cin=1 cout=x sum=00000000000000000000000000001100
# in1=00000000000000000000000000000011 in2=00000000000000000000000000000000 cin=1 cout=x sum=00000000000000000000000000000100
# in1=00000000000000000000000000000011 in2=00000000000000000000000000000001 cin=1 cout=x sum=00000000000000000000000000000101
# in1=00000000000000000000000000000011 in2=00000000000000000000000000000010 cin=1 cout=x sum=00000000000000000000000000000110
# in1=00000000000000000000000000000011 in2=00000000000000000000000000000011 cin=1 cout=x sum=00000000000000000000000000000111
# in1=00000000000000000000000000000011 in2=00000000000000000000000000000100 cin=1 cout=x sum=00000000000000000000000000001000
# in1=00000000000000000000000000000011 in2=00000000000000000000000000000101 cin=1 cout=x sum=00000000000000000000000000001001
# in1=00000000000000000000000000000011 in2=00000000000000000000000000000110 cin=1 cout=x sum=00000000000000000000000000001010
# in1=00000000000000000000000000000011 in2=00000000000000000000000000000111 cin=1 cout=x sum=00000000000000000000000000001011
# in1=00000000000000000000000000000011 in2=00000000000000000000000000001000 cin=1 cout=x sum=00000000000000000000000000001100
# in1=00000000000000000000000000000011 in2=00000000000000000000000000001001 cin=1 cout=x sum=00000000000000000000000000001101
# in1=00000000000000000000000000000100 in2=00000000000000000000000000000000 cin=1 cout=x sum=00000000000000000000000000000101
# in1=00000000000000000000000000000100 in2=00000000000000000000000000000001 cin=1 cout=x sum=00000000000000000000000000000110
# in1=00000000000000000000000000000100 in2=00000000000000000000000000000010 cin=1 cout=x sum=00000000000000000000000000000111
# in1=00000000000000000000000000000100 in2=00000000000000000000000000000011 cin=1 cout=x sum=00000000000000000000000000001000
# in1=00000000000000000000000000000100 in2=00000000000000000000000000000100 cin=1 cout=x sum=00000000000000000000000000001001
# in1=00000000000000000000000000000100 in2=00000000000000000000000000000101 cin=1 cout=x sum=00000000000000000000000000001010
# in1=00000000000000000000000000000100 in2=00000000000000000000000000000110 cin=1 cout=x sum=00000000000000000000000000001011
# in1=00000000000000000000000000000100 in2=00000000000000000000000000000111 cin=1 cout=x sum=00000000000000000000000000001100
# in1=00000000000000000000000000000100 in2=00000000000000000000000000001000 cin=1 cout=x sum=00000000000000000000000000001101
# in1=00000000000000000000000000000100 in2=00000000000000000000000000001001 cin=1 cout=x sum=00000000000000000000000000001110
# in1=00000000000000000000000000000101 in2=00000000000000000000000000000000 cin=1 cout=x sum=00000000000000000000000000000110
# in1=00000000000000000000000000000101 in2=00000000000000000000000000000001 cin=1 cout=x sum=00000000000000000000000000000111
# in1=00000000000000000000000000000101 in2=00000000000000000000000000000010 cin=1 cout=x sum=00000000000000000000000000001000
# in1=00000000000000000000000000000101 in2=00000000000000000000000000000011 cin=1 cout=x sum=00000000000000000000000000001001
# in1=00000000000000000000000000000101 in2=00000000000000000000000000000100 cin=1 cout=x sum=00000000000000000000000000001010
# in1=00000000000000000000000000000101 in2=00000000000000000000000000000101 cin=1 cout=x sum=00000000000000000000000000001011
# in1=00000000000000000000000000000101 in2=00000000000000000000000000000110 cin=1 cout=x sum=00000000000000000000000000001100
# in1=00000000000000000000000000000101 in2=00000000000000000000000000000111 cin=1 cout=x sum=00000000000000000000000000001101
# in1=00000000000000000000000000000101 in2=00000000000000000000000000001000 cin=1 cout=x sum=00000000000000000000000000001110
# in1=00000000000000000000000000000101 in2=00000000000000000000000000001001 cin=1 cout=x sum=00000000000000000000000000001111
# in1=00000000000000000000000000000110 in2=00000000000000000000000000000000 cin=1 cout=x sum=00000000000000000000000000000111
# in1=00000000000000000000000000000110 in2=00000000000000000000000000000001 cin=1 cout=x sum=00000000000000000000000000001000
# in1=00000000000000000000000000000110 in2=00000000000000000000000000000010 cin=1 cout=x sum=00000000000000000000000000001001
# in1=00000000000000000000000000000110 in2=00000000000000000000000000000011 cin=1 cout=x sum=00000000000000000000000000001010
# in1=00000000000000000000000000000110 in2=00000000000000000000000000000100 cin=1 cout=x sum=00000000000000000000000000001011
# in1=00000000000000000000000000000110 in2=00000000000000000000000000000101 cin=1 cout=x sum=00000000000000000000000000001100
# in1=00000000000000000000000000000110 in2=00000000000000000000000000000110 cin=1 cout=x sum=00000000000000000000000000001101
# in1=00000000000000000000000000000110 in2=00000000000000000000000000000111 cin=1 cout=x sum=00000000000000000000000000001110
# in1=00000000000000000000000000000110 in2=00000000000000000000000000001000 cin=1 cout=x sum=00000000000000000000000000001111
# in1=00000000000000000000000000000110 in2=00000000000000000000000000001001 cin=1 cout=x sum=00000000000000000000000000010000
# in1=00000000000000000000000000000111 in2=00000000000000000000000000000000 cin=1 cout=x sum=00000000000000000000000000001000
# in1=00000000000000000000000000000111 in2=00000000000000000000000000000001 cin=1 cout=x sum=00000000000000000000000000001001
# in1=00000000000000000000000000000111 in2=00000000000000000000000000000010 cin=1 cout=x sum=00000000000000000000000000001010
# in1=00000000000000000000000000000111 in2=00000000000000000000000000000011 cin=1 cout=x sum=00000000000000000000000000001011
# in1=00000000000000000000000000000111 in2=00000000000000000000000000000100 cin=1 cout=x sum=00000000000000000000000000001100
# in1=00000000000000000000000000000111 in2=00000000000000000000000000000101 cin=1 cout=x sum=00000000000000000000000000001101
# in1=00000000000000000000000000000111 in2=00000000000000000000000000000110 cin=1 cout=x sum=00000000000000000000000000001110
# in1=00000000000000000000000000000111 in2=00000000000000000000000000000111 cin=1 cout=x sum=00000000000000000000000000001111
# in1=00000000000000000000000000000111 in2=00000000000000000000000000001000 cin=1 cout=x sum=00000000000000000000000000010000
# in1=00000000000000000000000000000111 in2=00000000000000000000000000001001 cin=1 cout=x sum=00000000000000000000000000010001
# in1=00000000000000000000000000001000 in2=00000000000000000000000000000000 cin=1 cout=x sum=00000000000000000000000000001001
# in1=00000000000000000000000000001000 in2=00000000000000000000000000000001 cin=1 cout=x sum=00000000000000000000000000001010
# in1=00000000000000000000000000001000 in2=00000000000000000000000000000010 cin=1 cout=x sum=00000000000000000000000000001011
# in1=00000000000000000000000000001000 in2=00000000000000000000000000000011 cin=1 cout=x sum=00000000000000000000000000001100
# in1=00000000000000000000000000001000 in2=00000000000000000000000000000100 cin=1 cout=x sum=00000000000000000000000000001101
# in1=00000000000000000000000000001000 in2=00000000000000000000000000000101 cin=1 cout=x sum=00000000000000000000000000001110
# in1=00000000000000000000000000001000 in2=00000000000000000000000000000110 cin=1 cout=x sum=00000000000000000000000000001111
# in1=00000000000000000000000000001000 in2=00000000000000000000000000000111 cin=1 cout=x sum=00000000000000000000000000010000
# in1=00000000000000000000000000001000 in2=00000000000000000000000000001000 cin=1 cout=x sum=00000000000000000000000000010001
# in1=00000000000000000000000000001000 in2=00000000000000000000000000001001 cin=1 cout=x sum=00000000000000000000000000010010
# in1=00000000000000000000000000001001 in2=00000000000000000000000000000000 cin=1 cout=x sum=00000000000000000000000000001010
# in1=00000000000000000000000000001001 in2=00000000000000000000000000000001 cin=1 cout=x sum=00000000000000000000000000001011
# in1=00000000000000000000000000001001 in2=00000000000000000000000000000010 cin=1 cout=x sum=00000000000000000000000000001100
# in1=00000000000000000000000000001001 in2=00000000000000000000000000000011 cin=1 cout=x sum=00000000000000000000000000001101
# in1=00000000000000000000000000001001 in2=00000000000000000000000000000100 cin=1 cout=x sum=00000000000000000000000000001110
# in1=00000000000000000000000000001001 in2=00000000000000000000000000000101 cin=1 cout=x sum=00000000000000000000000000001111
# in1=00000000000000000000000000001001 in2=00000000000000000000000000000110 cin=1 cout=x sum=00000000000000000000000000010000
# in1=00000000000000000000000000001001 in2=00000000000000000000000000000111 cin=1 cout=x sum=00000000000000000000000000010001
# in1=00000000000000000000000000001001 in2=00000000000000000000000000001000 cin=1 cout=x sum=00000000000000000000000000010010
# in1=00000000000000000000000000001001 in2=00000000000000000000000000001001 cin=1 cout=x sum=00000000000000000000000000010011
# 
# 
# Test Overflow
# 
# 
# in1=11111111111111111111111111111111 in2=11111111111111111111111111111111 cin=0 cout=x sum=11111111111111111111111111111110
# in1=11111111111111111111111111111111 in2=11111111111111111111111111111111 cin=1 cout=1 sum=11111111111111111111111111111111
# in1=11111111111111111111111111111111 in2=00000000000000000000000000000000 cin=0 cout=0 sum=11111111111111111111111111111111
# in1=00000000000000000000000000000000 in2=11111111111111111111111111111111 cin=0 cout=0 sum=11111111111111111111111111111111
# 
# 
# Test negative numbers
# 
# 
# in1=11111111111111111111111111111111 in2=00000000000000000000000000000001 cin=0 cout=x sum=00000000000000000000000000000000
# in1=00000000000000000000000000001010 in2=00000000000000000000000000000101 cin=0 cout=0 sum=00000000000000000000000000001111
# in1=00000000000000000000000000000000 in2=00000000000000000000000000000000 cin=0 cout=0 sum=00000000000000000000000000000000
# in1=11111111111111111111111111110110 in2=00000000000000000000000000000101 cin=0 cout=0 sum=11111111111111111111111111111011
# in1=11111111111111111111111111110110 in2=11111111111111111111111111111011 cin=0 cout=x sum=11111111111111111111111111110001
# ** Note: $finish    : E:/CMP/5th Semester/VLSI/Project/CSATb.v(74)
#    Time: 2090 ps  Iteration: 0  Instance: /CSA_tb
# 1
# Break in Module CSA_tb at E:/CMP/5th Semester/VLSI/Project/CSATb.v line 74
# WARNING: No extended dataflow license exists
# Error: invalid command name "::.main_pane.dataflow.interior.cs.body.pw.df.c"
# Break key hit
# Compile of FA.v was successful.
# Compile of RippleCarryAdder.v was successful.
# Compile of mux.v was successful.
# Compile of CarrySkipAdderInterface.v was successful.
# Compile of CarrySkipAdder.v was successful.
# Compile of CSATb.v was successful.
# 6 compiles, 0 failed with no errors.
restart -f
# ** Note: (vsim-12125) Error and warning message counts have been reset to '0' because of 'restart'.
# Loading work.CSA_tb
# Loading work.CSA
# Loading work.RippelCarryAdder
# Loading work.CSAPropagate
# Loading work.mux_2x1
# Loading work.Fulladder
# ** Warning: (vsim-3015) [PCDPC] - Port size (4) does not match connection size (32) for port 'prog'. The port definition is at: E:/CMP/5th Semester/VLSI/Project/CarrySkipAdderInterface.v(7).
#    Time: 0 ps  Iteration: 0  Instance: /CSA_tb/CSA_tb/CSAP File: E:/CMP/5th Semester/VLSI/Project/CarrySkipAdder.v Line: 12
run -all
# GetModuleFileName: The specified module could not be found.
# 
# 
# in1=00000000000000000000000000000000 in2=00000000000000000000000000000000 cin=0 cout=0 sum=00000000000000000000000000000000
# in1=00000000000000000000000000000000 in2=00000000000000000000000000000001 cin=0 cout=0 sum=00000000000000000000000000000001
# in1=00000000000000000000000000000000 in2=00000000000000000000000000000010 cin=0 cout=0 sum=00000000000000000000000000000010
# in1=00000000000000000000000000000000 in2=00000000000000000000000000000011 cin=0 cout=0 sum=00000000000000000000000000000011
# in1=00000000000000000000000000000000 in2=00000000000000000000000000000100 cin=0 cout=0 sum=00000000000000000000000000000100
# in1=00000000000000000000000000000000 in2=00000000000000000000000000000101 cin=0 cout=0 sum=00000000000000000000000000000101
# in1=00000000000000000000000000000000 in2=00000000000000000000000000000110 cin=0 cout=0 sum=00000000000000000000000000000110
# in1=00000000000000000000000000000000 in2=00000000000000000000000000000111 cin=0 cout=0 sum=00000000000000000000000000000111
# in1=00000000000000000000000000000000 in2=00000000000000000000000000001000 cin=0 cout=0 sum=00000000000000000000000000001000
# in1=00000000000000000000000000000000 in2=00000000000000000000000000001001 cin=0 cout=0 sum=00000000000000000000000000001001
# in1=00000000000000000000000000000001 in2=00000000000000000000000000000000 cin=0 cout=0 sum=00000000000000000000000000000001
# in1=00000000000000000000000000000001 in2=00000000000000000000000000000001 cin=0 cout=0 sum=00000000000000000000000000000010
# in1=00000000000000000000000000000001 in2=00000000000000000000000000000010 cin=0 cout=0 sum=00000000000000000000000000000011
# in1=00000000000000000000000000000001 in2=00000000000000000000000000000011 cin=0 cout=0 sum=00000000000000000000000000000100
# in1=00000000000000000000000000000001 in2=00000000000000000000000000000100 cin=0 cout=0 sum=00000000000000000000000000000101
# in1=00000000000000000000000000000001 in2=00000000000000000000000000000101 cin=0 cout=0 sum=00000000000000000000000000000110
# in1=00000000000000000000000000000001 in2=00000000000000000000000000000110 cin=0 cout=0 sum=00000000000000000000000000000111
# in1=00000000000000000000000000000001 in2=00000000000000000000000000000111 cin=0 cout=0 sum=00000000000000000000000000001000
# in1=00000000000000000000000000000001 in2=00000000000000000000000000001000 cin=0 cout=0 sum=00000000000000000000000000001001
# in1=00000000000000000000000000000001 in2=00000000000000000000000000001001 cin=0 cout=0 sum=00000000000000000000000000001010
# in1=00000000000000000000000000000010 in2=00000000000000000000000000000000 cin=0 cout=0 sum=00000000000000000000000000000010
# in1=00000000000000000000000000000010 in2=00000000000000000000000000000001 cin=0 cout=0 sum=00000000000000000000000000000011
# in1=00000000000000000000000000000010 in2=00000000000000000000000000000010 cin=0 cout=0 sum=00000000000000000000000000000100
# in1=00000000000000000000000000000010 in2=00000000000000000000000000000011 cin=0 cout=0 sum=00000000000000000000000000000101
# in1=00000000000000000000000000000010 in2=00000000000000000000000000000100 cin=0 cout=0 sum=00000000000000000000000000000110
# in1=00000000000000000000000000000010 in2=00000000000000000000000000000101 cin=0 cout=0 sum=00000000000000000000000000000111
# in1=00000000000000000000000000000010 in2=00000000000000000000000000000110 cin=0 cout=0 sum=00000000000000000000000000001000
# in1=00000000000000000000000000000010 in2=00000000000000000000000000000111 cin=0 cout=0 sum=00000000000000000000000000001001
# in1=00000000000000000000000000000010 in2=00000000000000000000000000001000 cin=0 cout=0 sum=00000000000000000000000000001010
# in1=00000000000000000000000000000010 in2=00000000000000000000000000001001 cin=0 cout=0 sum=00000000000000000000000000001011
# in1=00000000000000000000000000000011 in2=00000000000000000000000000000000 cin=0 cout=0 sum=00000000000000000000000000000011
# in1=00000000000000000000000000000011 in2=00000000000000000000000000000001 cin=0 cout=0 sum=00000000000000000000000000000100
# in1=00000000000000000000000000000011 in2=00000000000000000000000000000010 cin=0 cout=0 sum=00000000000000000000000000000101
# in1=00000000000000000000000000000011 in2=00000000000000000000000000000011 cin=0 cout=0 sum=00000000000000000000000000000110
# in1=00000000000000000000000000000011 in2=00000000000000000000000000000100 cin=0 cout=0 sum=00000000000000000000000000000111
# in1=00000000000000000000000000000011 in2=00000000000000000000000000000101 cin=0 cout=0 sum=00000000000000000000000000001000
# in1=00000000000000000000000000000011 in2=00000000000000000000000000000110 cin=0 cout=0 sum=00000000000000000000000000001001
# in1=00000000000000000000000000000011 in2=00000000000000000000000000000111 cin=0 cout=0 sum=00000000000000000000000000001010
# in1=00000000000000000000000000000011 in2=00000000000000000000000000001000 cin=0 cout=0 sum=00000000000000000000000000001011
# in1=00000000000000000000000000000011 in2=00000000000000000000000000001001 cin=0 cout=0 sum=00000000000000000000000000001100
# in1=00000000000000000000000000000100 in2=00000000000000000000000000000000 cin=0 cout=0 sum=00000000000000000000000000000100
# in1=00000000000000000000000000000100 in2=00000000000000000000000000000001 cin=0 cout=0 sum=00000000000000000000000000000101
